"pedidos_id";"pedidos_fecha";"usuarios_id";"usuarios_nick";"cepal_id";"cepal_titulo";"pedidos_orden";"pedidos_estado";"pedidos_reclamo";"pedidos_cantidad";"pedidos_pais";"pedidos_uniqid";"ed"
"1";"2019-02-14";"68";"FIU";"25723";"Relecturas de la Guerra del Pacifico. Avances y perspectivas";"0";"enviado";"0";"1";"CL";"FIU_25723";"2019-04-27 17:51:19.76"
"3";"2019-02-14";"69";"PRINCETON:DIVINITY";"25724";"Descolonizar el saber teologico latinoamericano";"Jeremy";"vigente";"0";"1";"CL";"PRINCETON_25724";"2019-02-14 10:43:34.89"
"4";"2019-02-14";"43";"PRINCETON:PEDIDOS";"25725";"Museo de la solidaridad Chile. Fraternidad, Arte y Politica 1971-1973";"520329";"enviado";"0";"1";"CL";"PRINCETON_25725";"2019-05-02 18:35:50.51"
"5";"2019-02-14";"178";"MICHIGAN:PEDIDOS";"25726";"Diccionario de la literatura chilena";"Mary Jo";"vigente";"0";"1";"CL";"MICHIGAN_25726";"2019-02-14 11:01:06.34"
"6";"2019-02-14";"68";"FIU";"20934";"ConcEnOff. Relatos de rock penquista";"36566647-1";"enviado";"0";"1";"CL";"FIU_20934";"2019-04-27 17:47:49.92"
"7";"2019-02-14";"68";"FIU";"20933";"Esta señorita Trini!. La primera comedia musical chilena (1958). Libreto y partitura completa con acompañamiento de piano";"36566648-1";"enviado";"0";"1";"CL";"FIU_20933";"2019-03-18 11:46:46.78"
"8";"2019-02-14";"68";"FIU";"23063";"No hay armazon que la sostenga. Entrevistas con Diamela Eltit";"36566649-1";"enviado";"0";"1";"CL";"FIU_23063";"2019-04-27 17:44:34.56"
"9";"2019-02-14";"68";"FIU";"20965";"Por qué filmamos lo que filmamos?. Diálogos en torno al cine chileno (2006-2016)";"36566651-1";"enviado";"0";"1";"CL";"FIU_20965";"2019-04-27 17:44:03.21"
"10";"2019-02-14";"68";"FIU";"22297";"Gabriela Mistral. Somos los Andinos que fuimos";"36566652-1";"enviado";"0";"1";"CL";"FIU_22297";"2019-04-27 17:48:36.68"
"11";"2019-02-14";"68";"FIU";"22890";"Vientos del Pueblo. Representaciones, recepciones e interpretaciones sobre la Nueva Cancion Chilena";"36566653-1";"enviado";"0";"1";"CL";"FIU_22890";"2019-03-18 11:52:46.19"
"12";"2019-02-14";"68";"FIU";"21654";"Aprendizajes politicos entre la Union Europea y America Latina";"36566654-1";"enviado";"0";"1";"CL";"FIU_21654";"2019-03-18 11:53:22.93"
"13";"2019-02-14";"68";"FIU";"23062";"El gobierno de Allende. Chile 1970-1973";"36566650-1";"enviado";"0";"1";"CL";"FIU_23062";"2019-03-18 11:42:37.63"
"14";"2019-02-14";"68";"FIU";"21627";"Diplomacia chilena. Una perspectiva histórica";"36566655-1";"enviado";"0";"1";"CL";"FIU_21627";"2019-04-29 22:23:47.13"
"15";"2019-02-14";"68";"FIU";"20220";"Empresas y empresarios en la historia de Chile: 1930-2015";"36566656-1";"enviado";"0";"1";"CL";"FIU_20220";"2019-04-27 17:43:24.95"
"16";"2019-02-14";"68";"FIU";"21651";"La vida entre contiendas. Militancias y sentidos de la participación política en la lucha antidictatorial chilena";"36566658-1";"enviado";"0";"1";"CL";"FIU_21651";"2019-03-18 11:54:04.56"
"17";"2019-02-14";"68";"FIU";"23551";"Cuba. Viaje al fin de la revolucion";"36566657-1";"enviado";"0";"1";"CL";"FIU_23551";"2019-04-27 17:47:34.17"
"18";"2019-02-14";"68";"FIU";"23476";"Historia de la Revolucion Militar Chilena, 1973-1990";"36566659-1";"enviado";"0";"1";"CL";"FIU_23476";"2019-03-18 11:41:16.60"
"19";"2019-02-14";"68";"FIU";"20224";"Subversión, coerción y consenso. Creando el Chile del siglo XX (1918-1938)";"36566660-1";"enviado";"0";"1";"CL";"FIU_20224";"2019-03-18 11:50:53.53"
"20";"2019-02-14";"68";"FIU";"23191";"El afan de cruzar las fronteras. Enfoques transdisciplianarios sobre migraciones y movilidad en Sudamerica y Chile";"36566661-1";"enviado";"0";"1";"CL";"FIU_23191";"2019-03-18 11:39:04.48"
"21";"2019-02-14";"68";"FIU";"23550";"Rapa Nui: una herida en el Oceano. Historia y memoria de la opresion";"36566662-1";"enviado";"0";"1";"CL";"FIU_23550";"2019-04-27 17:47:02.32"
"22";"2019-02-14";"68";"FIU";"21629";"La azarosa y dificil aventura de migrar. españoles en Chile (1880-1950)";"36566662-1";"enviado";"0";"1";"CL";"FIU_21629";"2019-05-01 09:25:47.29"
"23";"2019-02-14";"68";"FIU";"23780";"Familias transnacionales desde el sur. Testimonios de la globalizacion en Chile";"36566664-1";"enviado";"0";"1";"CL";"FIU_23780";"2019-04-27 17:43:46.25"
"24";"2019-02-14";"68";"FIU";"20972";"La guerra en cautiverio. Los prisioneros de la Guerra  del Pacifico 1879-1884";"36566665-1";"enviado";"0";"1";"CL";"FIU_20972";"2019-04-27 17:46:44.00"
"25";"2019-02-14";"68";"FIU";"23553";"Mayo feminista. La rebelión contra el patriarcado";"36566666-1";"enviado";"0";"1";"CL";"FIU_23553";"2019-03-18 11:47:25.76"
"26";"2019-02-14";"68";"FIU";"22140";"Las niñas pueden";"36566667-1";"enviado";"0";"1";"CL";"FIU_22140";"2019-04-29 22:23:31.01"
"27";"2019-02-14";"68";"FIU";"23117";"Viaje a las Estepas. Cien jovenes chilenos varados en la Union Sovietica tras el golpe";"36566668-1";"enviado";"0";"1";"CL";"FIU_23117";"2019-04-27 17:46:20.37"
"28";"2019-02-14";"68";"FIU";"23419";"El guardaespaldas de Fidel. Cronica de un asesinato imaginario";"36566669-1";"enviado";"0";"1";"CL";"FIU_23419";"2019-03-18 11:59:53.57"
"29";"2019-02-14";"68";"FIU";"23421";"Con los ancestros en la espalda. Etnografía transnacional de la santería-Ifá cubana en Santiago (Chile) y La Paz (Bolivia), 1990-2015";"36566670-1";"enviado";"0";"1";"CL";"FIU_23421";"2019-03-18 11:58:44.24"
"30";"2019-02-14";"68";"FIU";"21620";"Breve historia de Chile. De la ultima glacicion a la ultima revolucion";"36566671-1";"enviado";"0";"1";"CL";"FIU_21620";"2019-04-27 17:41:28.70"
"31";"2019-02-14";"68";"FIU";"20456";"Una identidad terremoteada. Comunidad y territorio en el Chile de 1960";"36566672-1";"enviado";"0";"1";"CL";"FIU_20456";"2019-04-27 17:42:16.51"
"32";"2019-02-14";"65";"VANDERBILT";"22755";"Buscando el crecimiento económico: Mercado de factores, industrialización y desarrollo económico en Cali y Valle del Cauca (1900-1950)";"Paula";"vigente";"0";"1";"CO";"VANDERBILT_22755";"2019-02-14 14:20:10.12"
"33";"2019-02-14";"65";"VANDERBILT";"24265";"Un diablo al que llaman tren. El ferrocarril Cartagena-Calamar";"Paula";"vigente";"0";"1";"CO";"VANDERBILT_24265";"2019-02-14 14:21:18.43"
"34";"2019-02-14";"65";"VANDERBILT";"1729";"La Historia de las guerras";"Paula";"vigente";"0";"1";"CO";"VANDERBILT_1729";"2019-02-14 14:22:22.45"
"35";"2019-02-14";"43";"PRINCETON:PEDIDOS";"25727";"La proteccion internacional de refugiados. El caso Ecuador: perspectiva historica 1976-2004";"378344";"vigente";"0";"1";"EC";"PRINCETON_25727";"2019-02-14 14:43:25.85"
"36";"2019-02-14";"43";"PRINCETON:PEDIDOS";"25728";"Gonzalo Rubio Orbe: maestro indigenista";"378344";"vigente";"0";"1";"EC";"PRINCETON_25728";"2019-02-14 14:46:41.65"
"38";"2019-02-14";"43";"PRINCETON:PEDIDOS";"25729";"La realidad de las alpacas en el Ecuador: una vision para el futuro";"378344";"vigente";"0";"1";"EC";"PRINCETON_25729";"2019-02-14 14:50:36.30"
"39";"2019-02-14";"43";"PRINCETON:PEDIDOS";"25730";"Practica penal: juicio oral. Destrezas de litigacion, prueba y jurisdiccion indigena";"378344";"vigente";"0";"1";"EC";"PRINCETON_25730";"2019-02-14 14:53:35.20"
"40";"2019-02-14";"43";"PRINCETON:PEDIDOS";"25731";"La construccion de una sociedad sustentable: investigacion historica evolutiva de la tipologia vivienda en Puerto Ayora, Galapagos";"378344";"vigente";"0";"1";"EC";"PRINCETON_25731";"2019-02-14 14:57:11.47"
"41";"2019-02-14";"43";"PRINCETON:PEDIDOS";"21929";"Cambio climatico en un paisaje vivo: vulnerabilidad y adaptacion en la coordillera Real Oriental de Colombia, Ecuador y Peru";"378344";"vigente";"0";"1";"CO";"PRINCETON_21929";"2019-02-14 14:58:50.85"
"42";"2019-02-14";"43";"PRINCETON:PEDIDOS";"11543";"Problemas y perspectivas internacionales: periodismo militante";"378344";"vigente";"0";"1";"EC";"PRINCETON_11543";"2019-02-14 15:00:57.37"
"43";"2019-02-14";"68";"FIU";"25732";"La Guerra del Pacifico 1879-1884. Ampliando las miradas en la historiografia chileno peruana";"Gaby";"enviado";"0";"1";"CL";"FIU_25732";"2019-04-27 17:41:56.16"
"44";"2019-02-14";"174";"NOTRE DAME:PEDIDOS";"25733";"Un chistoso de aldea. Cuadros de costumbres populares";"452287";"enviado";"0";"1";"CO";"NOTRE DAME_25733";"2019-03-19 13:34:27.80"
"45";"2019-02-14";"90";"CAMBRIDGE";"20937";"America imaginaria";"0";"enviado";"0";"1";"CL";"CAMBRIDGE_20937";"2019-04-28 21:10:20.09"
"46";"2019-02-14";"90";"CAMBRIDGE";"23421";"Con los ancestros en la espalda. Etnografía transnacional de la santería-Ifá cubana en Santiago (Chile) y La Paz (Bolivia), 1990-2015";"0";"enviado";"0";"1";"CL";"CAMBRIDGE_23421";"2019-05-01 09:23:57.93"
"47";"2019-02-14";"90";"CAMBRIDGE";"21431";"Boom boom kid";"0";"vigente";"0";"1";"CL";"CAMBRIDGE_21431";"2019-02-14 16:02:02.29"
"49";"2019-03-14";"72";"LIBROS LATINOS";"21553";"Trilogia de tiernos y feroces. De Rokha, Violeta, Recabarren";"20130313";"enviado";"0";"1";"CL";"LIBROS LATINOS_21553";"2019-04-28 21:13:53.04"
"50";"2019-03-14";"72";"LIBROS LATINOS";"21548";"Adolfo Couve, el descabezado";"20130313";"enviado";"0";"1";"CL";"LIBROS LATINOS_21548";"2019-04-28 21:14:30.09"
"51";"2019-03-14";"72";"LIBROS LATINOS";"20965";"Por qué filmamos lo que filmamos?. Diálogos en torno al cine chileno (2006-2016)";"20130313";"enviado";"0";"1";"CL";"LIBROS LATINOS_20965";"2019-04-28 21:14:48.16"
"52";"2019-03-14";"72";"LIBROS LATINOS";"22297";"Gabriela Mistral. Somos los Andinos que fuimos";"20130313";"enviado";"0";"1";"CL";"LIBROS LATINOS_22297";"2019-04-29 22:13:11.55"
"53";"2019-03-14";"72";"LIBROS LATINOS";"21453";"Guía Nacional de Recomendaciones para la incorporación del enfoque de género en las Políticas de Drogas en Chile";"20130313";"enviado";"0";"1";"CL";"LIBROS LATINOS_21453";"2019-04-29 22:07:58.16"
"57";"2019-03-14";"72";"LIBROS LATINOS";"21036";"Religiosidad e indigenismo. Ensayo desde la etnoeducacion crítica en nuestro continente (Abya Yala)";"20130313";"enviado";"0";"1";"CL";"LIBROS LATINOS_21036";"2019-04-28 21:15:26.79"
"58";"2019-03-14";"72";"LIBROS LATINOS";"23471";"Qhapaq Ñan Atacama. Trazado visual al camino del inka en su paso por el desierto";"20130313";"enviado";"0";"1";"CL";"LIBROS LATINOS_23471";"2019-04-28 21:14:14.52"
"59";"2019-03-14";"72";"LIBROS LATINOS";"21655";"Necesidades emergentes en Chile. Avances en investigación y propuestas de intervención para la promoción del envejecimiento activo desde la Psicología";"20130313";"enviado";"0";"1";"CL";"LIBROS LATINOS_21655";"2019-04-28 21:15:07.53"
"60";"2019-03-14";"72";"LIBROS LATINOS";"21454";"Nueva constitución y derechos sexuales y reproductivos";"20130313";"enviado";"0";"1";"CL";"LIBROS LATINOS_21454";"2019-04-29 22:13:39.27"
"61";"2019-04-28";"90";"CAMBRIDGE";"21034";"Un fantasma recorre el campo. Comunismo y politizacion campesina en Chile (1935-1948)";"PO-57317";"enviado";"0";"1";"CL";"CAMBRIDGE_21034";"2019-04-29 22:15:15.73"
"62";"2019-04-29";"72";"LIBROS LATINOS";"21554";"Los pergaminos de la memoria. El genocidio indigena de la Patagonia Austral (1880-1920) en la obra de los poetas magallanicos Juan Pablo Riveros, Pavel Oyarzun y Christian Formoso";"20190313";"vigente";"0";"1";"CL";"LIBROS LATINOS_21554";"2019-04-29 22:57:35.66"
"63";"2019-07-29";"43";"PRINCETON:PEDIDOS";"3632";"Aproximacion al estudio del ritual encarnado. Los diablos de Collantes, la Guelaguetza en Oaxaca y otros cuerpos dialogicos";"473458";"vigente";"3";"1";"EC";"PRINCETON_3632";"2019-10-04 12:16:37.89"
"64";"2019-07-29";"43";"PRINCETON:PEDIDOS";"3506";"Epoca de lluvias";"473458";"vigente";"0";"1";"EC";"PRINCETON_3506";"2019-07-29 11:00:54.22"
"65";"2019-07-29";"43";"PRINCETON:PEDIDOS";"3501";"Poesia";"473458";"vigente";"1";"1";"EC";"PRINCETON_3501";"2019-07-29 14:25:45.31"
"66";"2019-07-29";"43";"PRINCETON:PEDIDOS";"3689";"Un estado mas efectivo. Capacidades para el diseño, la implementacion y el aprendizaje de politicas publicas";"473458";"vigente";"0";"1";"EC";"PRINCETON_3689";"2019-07-29 11:10:39.94"
"67";"2019-07-29";"43";"PRINCETON:PEDIDOS";"10444";"Buen vivir en el Ecuador. Del concepto a la mediación";"473458";"vigente";"0";"1";"EC";"PRINCETON_10444";"2019-07-29 11:13:02.51"
"68";"2019-07-29";"43";"PRINCETON:PEDIDOS";"3560";"Caso Chevron: Defensa del Ecuador frente al uso indebido del arbitraje de inversión";"473458";"vigente";"0";"1";"EC";"PRINCETON_3560";"2019-07-29 11:14:43.42"
"69";"2019-07-29";"81";"HARVARD:PEDIDOS WIDENER";"26517";"Recopilación del acervo histórico jurídico de la Provincia de Chimborazo en el siglo XIX. Parte I";"POL-236023";"vigente";"1";"1";"EC";"HARVARD_26517";"2019-08-28 11:06:39.44"
"70";"2019-07-29";"48";"HARVARD:PEDIDOS";"27561";"La desobediencia. Antología de ensayos feministas";"POL-206105";"enviado";"0";"1";"BO";"HARVARD_27561";"2019-09-03 13:51:31.62"
"71";"2019-07-29";"90";"CAMBRIDGE";"25981";"Homenaje a Neptali Ulcuango. Las luchas indigenas en el cantón Cayambe";"PO-102560";"vigente";"1";"1";"nd";"CAMBRIDGE_25981";"2019-10-04 17:09:31.04"
"72";"2019-07-29";"43";"PRINCETON:PEDIDOS";"307";"Voces de las familias con experiencia migratoria: Cambios, tensiones y oportunidades";"466232";"vigente";"0";"1";"CO";"PRINCETON_307";"2019-07-29 12:31:43.17"
"73";"2019-07-29";"43";"PRINCETON:PEDIDOS";"17089";"Medios comunitarios y democratización en Ecuador: aporte para el debate sobre el concurso público de frecuencias";;"vigente";"0";"1";"EC";"PRINCETON_17089";"2019-07-29 14:49:45.34"
"74";"2019-08-12";"86";"PITTSBURGH";"10062";"Apuntes sobre el estudio de la renta de hidrocarburos";"U693387";"enviado";"0";"1";"BO";"PITTSBURGH_10062";"2019-08-16 11:01:26.81"
"76";"2019-08-12";"86";"PITTSBURGH";"13778";"Bolivia 1982 - 2006 democracia";"U693390";"enviado";"0";"1";"BO";"PITTSBURGH_13778";"2019-09-12 16:54:19.20"
"77";"2019-08-12";"86";"PITTSBURGH";"13193";"Bolivia: escenarios en transformación artículos sobre política, cultura y economía";"U693377";"enviado";"0";"1";"BO";"PITTSBURGH_13193";"2019-08-16 11:02:11.33"
"78";"2019-08-12";"86";"PITTSBURGH";"7520";"Breve reseña de la historia monetaria de Bolivia: De los tiempos prehispánicos a los tiempos del Presidente Evo Morales";"U693389";"enviado";"0";"1";"BO";"PITTSBURGH_7520";"2019-08-19 10:26:34.84"
"79";"2019-08-12";"86";"PITTSBURGH";"10333";"Desarrollo del capitalismo en la agricultura y transformaciones en la sociedad rural boliviana";"u693392";"enviado";"0";"1";"BO";"PITTSBURGH_10333";"2019-08-19 15:27:36.61"
"80";"2019-08-12";"86";"PITTSBURGH";"10029";"Economía feminista y economía solidaria: Alternativa al patriarcado?";"U693406";"vigente";"0";"1";"BO";"PITTSBURGH_10029";"2019-08-12 21:30:57.67"
"81";"2019-08-12";"86";"PITTSBURGH";"10047";"En este mundo todo tiene dueño. Un acercamiento a la religión Mosetén";"U693413";"enviado";"0";"1";"BO";"PITTSBURGH_10047";"2019-08-19 10:32:02.02"
"82";"2019-08-12";"86";"PITTSBURGH";"7106";"Estrategias y planes de desarrollo agropecuario en Bolivia. La construcción de la ruta del desarrollo sectorial (1942 - 2013)";"U693403";"enviado";"0";"1";"BO";"PITTSBURGH_7106";"2019-08-19 10:28:01.16"
"83";"2019-08-12";"86";"PITTSBURGH";"7763";"Estudio comparado de regímenes descentralizados 24 países";"U693399";"vigente";"0";"1";"BO";"PITTSBURGH_7763";"2019-08-12 21:34:21.62"
"84";"2019-08-12";"86";"PITTSBURGH";"6897";"Fondo indígena: la gran estafa. Denuncias y propuestas desde los pueblos indígenas";"U693401";"vigente";"0";"1";"BO";"PITTSBURGH_6897";"2019-08-12 21:35:21.47"
"85";"2019-08-12";"86";"PITTSBURGH";"7517";"Historia monetaria de Bolivia: Tomo I: Desde la pre-colonia a 1875";"U693418";"enviado";"0";"1";"BO";"PITTSBURGH_7517";"2019-08-19 10:27:09.59"
"86";"2019-08-12";"86";"PITTSBURGH";"7518";"Historia monetaria de Bolivia: Tomo II: Del régimen monetario liberal al nuevo modelo económico: 1975-2013";"U693419";"enviado";"0";"1";"BO";"PITTSBURGH_7518";"2019-08-19 10:26:54.75"
"87";"2019-08-12";"86";"PITTSBURGH";"10016";"Libertad y liberalismo en Bolivia";"U693421";"vigente";"0";"1";"BO";"PITTSBURGH_10016";"2019-08-12 21:38:28.15"
"88";"2019-08-12";"86";"PITTSBURGH";"7143";"El MAS abraza el modelo capitalista. Crítica de la cumbre agropecuaria ""sembrando Bolivia""";"U693415";"enviado";"0";"1";"BO";"PITTSBURGH_7143";"2019-08-19 10:28:24.38"
"89";"2019-08-12";"86";"PITTSBURGH";"10006";"La palabra de los abuelos. Los espacios sagrados en la territorialidad de Santiago de Huari";"U693420";"enviado";"0";"1";"BO";"PITTSBURGH_10006";"2019-08-19 10:32:16.45"
"90";"2019-08-12";"86";"PITTSBURGH";"7380";"El Poder de las plumas. Colección de arte plumario del Museo Nacional de Etnografía y Folklore, según la cadena de producción";"U693408";"enviado";"0";"1";"BO";"PITTSBURGH_7380";"2019-08-19 10:33:06.79"
"91";"2019-08-12";"86";"PITTSBURGH";"7118";"La politización en la diferencia. Experiencias y diálogos políticos de las mujeres en Bolivia";"U693423";"vigente";"0";"1";"BO";"PITTSBURGH_7118";"2019-08-12 21:42:47.19"
"92";"2019-08-12";"86";"PITTSBURGH";"7227";"La problemática de la tierra a los 18 años de la ley INRA. Territorios, minifundio, e individualización";"U693422";"vigente";"0";"1";"BO";"PITTSBURGH_7227";"2019-08-12 21:43:30.08"
"93";"2019-08-12";"86";"PITTSBURGH";"13782";"El pueblo afrodescendiente en Bolivia. De la clandestinidad a la visibilidad protagónica";"U693410";"vigente";"0";"1";"BO";"PITTSBURGH_13782";"2019-08-12 21:44:18.07"
"94";"2019-08-12";"86";"PITTSBURGH";"11819";"Democracia (im) Pactada. Coaliciones políticas en Bolivia (1985-2003)";"U693386";"vigente";"0";"1";"BO";"PITTSBURGH_11819";"2019-08-12 21:45:46.97"
"95";"2019-08-13";"43";"PRINCETON:PEDIDOS";"25736";"Conflicto armado y salud mental. Una mirada al conflicto colombiano";"0";"vigente";"0";"1";"CO";"PRINCETON_25736";"2019-08-13 14:13:30.96"
"97";"2019-08-13";"89";"MINNESOTA";"18633";"El intercambio político. Indígenas/campesinos en el Estado plurinacional (2009-2016)";"e-mail IrisFrade:02agot19";"enviado";"0";"1";"BO";"MINNESOTA_18633";"2019-09-12 15:46:18.18"
"98";"2019-08-13";"89";"MINNESOTA";"20157";"Cartas de mujeres Bolivia: poder patriarcal y las múltiples expresiones de la violencia contra las mujeres";"email IrisFrade:02agost19";"vigente";"0";"1";"BO";"MINNESOTA_20157";"2019-08-13 15:11:45.39"
"99";"2019-08-13";"89";"MINNESOTA";"18662";"Desarrollo de Cochabamba en régimen autónomo";"email IrisFrade:02agost19";"enviado";"1";"1";"BO";"MINNESOTA_18662";"2019-09-12 13:43:07.00"
"100";"2019-08-13";"86";"PITTSBURGH";"10002";"Impacto de la modernidad en la ciudad de La Paz 1900 - 1920";"U693470";"vigente";"0";"1";"BO";"PITTSBURGH_10002";"2019-08-13 19:11:43.85"
"101";"2019-08-13";"86";"PITTSBURGH";"3581";"Democracia participativa e izquierdas. Logros, contradicciones y desafios";"U693468";"vigente";"0";"1";"EC";"PITTSBURGH_3581";"2019-08-13 19:13:37.74"
"102";"2019-08-13";"86";"PITTSBURGH";"10009";"Industrialización tardía y progreso técnico. Un acercamiento teórico - histórico al proyecto desarrollista boliviano";"U693473";"enviado";"0";"1";"BO";"PITTSBURGH_10009";"2019-08-13 19:15:12.26"
"103";"2019-08-13";"86";"PITTSBURGH";"6900";"Lo Público en la pluralidad. Ensayos desde Bolivia y América Latina";"U693476";"enviado";"0";"1";"BO";"PITTSBURGH_6900";"2019-08-19 10:32:51.78"
"104";"2019-08-13";"86";"PITTSBURGH";"9998";"La gran estafa del 21-F. Caso Zapata";"U693475";"vigente";"0";"1";"BO";"PITTSBURGH_9998";"2019-08-13 19:17:07.72"
"105";"2019-08-13";"86";"PITTSBURGH";"13189";"Política y romance en la candidatura de Rojas, de Armando Chirveches";"U693481";"enviado";"0";"1";"BO";"PITTSBURGH_13189";"2019-08-22 15:16:01.13"
"106";"2019-08-13";"86";"PITTSBURGH";"10020";"Presente y futuro del litio. Salar de Uyuni, provincias: Daniel Campos y Nor Lípez, Departamento de Potosí - Bolivia";"U693480";"enviado";"0";"1";"BO";"PITTSBURGH_10020";"2019-08-19 10:31:48.55"
"107";"2019-08-13";"86";"PITTSBURGH";"7444";"Navegando futuro. Dos experiencias de adaptación al cambio climático en Bolivia";"U693484";"vigente";"0";"1";"BO";"PITTSBURGH_7444";"2019-08-13 19:19:53.90"
"108";"2019-08-13";"86";"PITTSBURGH";"10063";"Reescribiendo la historia: Manuel Pareja Abecia. Pionero de la jornada de ocho horas de trabajo en Bolivia - Huanuni; máximo líder sindical minero 1914 - 1920";"U693488";"enviado";"0";"1";"BO";"PITTSBURGH_10063";"2019-08-19 10:31:11.71"
"109";"2019-08-13";"86";"PITTSBURGH";"7105";"Yolanda Bedregal una mujer del siglo XX";"U693493";"enviado";"0";"1";"BO";"PITTSBURGH_7105";"2019-08-19 10:27:38.45"
"110";"2019-08-13";"86";"PITTSBURGH";"7396";"Retablos y piedras santos. La materialidad de las wak'as";"U693502";"enviado";"0";"1";"BO";"PITTSBURGH_7396";"2019-08-19 10:33:37.09"
"111";"2019-08-13";"86";"PITTSBURGH";"12684";"Resurgimiento y caída de la gente decente. Un sendero en la formación de una clase-etnia dominante en Bolivia (1940-2003)";"U693501";"enviado";"0";"1";"BO";"PITTSBURGH_12684";"2019-08-19 10:15:22.67"
"112";"2019-08-13";"86";"PITTSBURGH";"7135";"Utopía indígena truncada. Proyectos y praxis de poder indígena en Bolivia Plurinacional";"U693500";"enviado";"0";"1";"BO";"PITTSBURGH_7135";"2019-08-19 10:30:57.93"
"113";"2019-08-13";"86";"PITTSBURGH";"6972";"Roberto Prudencio y los otros del bicentenario. El aporte liberal y conservador al pensamiento boliviano";"U693499";"vigente";"0";"1";"BO";"PITTSBURGH_6972";"2019-08-13 19:24:35.95"
"114";"2019-08-13";"86";"PITTSBURGH";"18594";"Los partidos de izquierda ante la cuestión indígena 1920 - 1977";"U693478";"enviado";"0";"1";"BO";"PITTSBURGH_18594";"2019-08-13 19:25:26.01"
"115";"2019-08-13";"86";"PITTSBURGH";"10064";"Cambiar el mundo desde arriba. Los límites del progresismo";"U693497";"enviado";"0";"1";"BO";"PITTSBURGH_10064";"2019-08-19 10:31:26.99"
"116";"2019-08-13";"86";"PITTSBURGH";"10024";"Saturno. Reflexiones urbanísticas en torno al problema de la incidencia del transporte público en el departamento urbano de las ciudades de La Paz y El Alto y dos capítulos de la tesis doctoral constelaciones urbanas y arquitéctonicas en la ciudad de La Paz, defendido en la Universidad Autónoma de México U.N.A.M. 2013";"U693494";"vigente";"0";"1";"BO";"PITTSBURGH_10024";"2019-08-13 19:33:55.32"
"121";"2019-08-28";"21";"PRINCETON";"16428";"Chuquisaca: El gran momento de un pacto federal";"514793";"vigente";"0";"1";"BO";"PRINCETON_16428";"2019-08-28 10:55:21.36"
"122";"2019-08-28";"21";"PRINCETON";"15493";"El nuevo constitucionalismo latinoamericano. Un estudio sobre Bolivia";"514102";"vigente";"0";"1";"BO";"PRINCETON_15493";"2019-08-28 10:56:24.45"
"123";"2019-08-28";"21";"PRINCETON";"16355";"Cronología. Camiri - Cordillera";"514116";"vigente";"0";"1";"BO";"PRINCETON_16355";"2019-08-28 11:00:41.04"
"124";"2019-08-28";"48";"HARVARD:PEDIDOS";"26521";"Recopilación del acervo histórico jurídico de la Provincia de Chimborazo en el siglo XIX. Parte II";"POL-236023";"vigente";"0";"1";"EC";"HARVARD_26521";"2019-08-28 11:08:44.81"
"125";"2019-08-29";"100";"KIEL";"13140";"Comercio de bienes entre La Union Europea y Colombia. Estadisticas del primer ano desde la entrada en vigor del Acuerdo Comercial";"17013756";"vigente";"0";"1";"CO";"KIEL_13140";"2019-08-29 15:22:30.63"
"126";"2019-08-29";"43";"PRINCETON:PEDIDOS";"10083";"Excepciones del acuerdo de la Habana: Comisión de Crímenes internacionales en el marco del conflicto armado y su tratamiento jurídico en un escenario de postconflicto";"483548";"vigente";"0";"1";"CO";"PRINCETON_10083";"2019-08-29 15:27:56.94"
"127";"2019-08-29";"43";"PRINCETON:PEDIDOS";"8583";"El Ecuador de la revolución ciudadana";"483548";"vigente";"0";"1";"EC";"PRINCETON_8583";"2019-08-29 15:42:46.53"
"128";"2019-08-29";"43";"PRINCETON:PEDIDOS";"15388";"Colombia. La hora de la izquierda";"226231";"enviado";"0";"1";"CO";"PRINCETON_15388";"2019-08-29 15:45:38.33"
"129";"2019-08-29";"43";"PRINCETON:PEDIDOS";"17766";"Ordenar los territorios. Perspectivas críticas desde América Latina";"226233";"vigente";"1";"1";"CO";"PRINCETON_17766";"2019-08-29 15:52:41.71"
"130";"2019-08-29";"43";"PRINCETON:PEDIDOS";"15459";"Artistas, mecenas y feligreses en Yanhuitlán, Mixteca Alta, siglos XVI-XXI";"523636";"enviado";"0";"1";"CO";"PRINCETON_15459";"2019-08-29 16:02:28.62"
"131";"2019-08-29";"43";"PRINCETON:PEDIDOS";"15889";"Relaciones Colombia- Venezuela en los inicios del siglo XXI. Estrategias discursivas. Construccion de identidades y diplomacia presidencial";"523636";"vigente";"0";"1";"CO";"PRINCETON_15889";"2019-08-29 16:05:41.57"
"132";"2019-08-29";"43";"PRINCETON:PEDIDOS";"15824";"Ritos de Orillas. Espiritualidad de las comunidades negras del Pacifico Colombiano";"523636";"vigente";"0";"1";"CO";"PRINCETON_15824";"2019-08-29 16:09:18.94"
"133";"2019-08-29";"43";"PRINCETON:PEDIDOS";"14521";"Sistemas punitivos y derechos humanos. El caso de la comuna 13 de Medellín - Colombia";"523636";"vigente";"0";"1";"CO";"PRINCETON_14521";"2019-08-29 16:10:41.89"
"134";"2019-08-29";"43";"PRINCETON:PEDIDOS";"15079";"Música champeta y africana en el Caribe colombiano. Revolución y cultura desde la verbena y el picó";"523636";"vigente";"0";"1";"CO";"PRINCETON_15079";"2019-08-29 16:12:56.85"
"135";"2019-09-05";"86";"PITTSBURGH";"23843";"Memorias. Pepe Murillo cantar, siempre cantar!!!";"U691867";"vigente";"0";"1";"BO";"PITTSBURGH_23843";"2019-09-05 09:47:39.71"
"136";"2019-09-05";"86";"PITTSBURGH";"24539";"Interpelaciones desde el sur. aprendizajes sobre ecología integral e intervenciones etno-ecológicas";"U691858";"vigente";"0";"1";"BO";"PITTSBURGH_24539";"2019-09-05 09:51:02.85"
"137";"2019-09-05";"86";"PITTSBURGH";"23953";"El juicio de trigamia por los directores del semanario La Broma";"u691761";"enviado";"0";"1";"BO";"PITTSBURGH_23953";"2019-09-24 09:50:36.30"
"138";"2019-09-05";"86";"PITTSBURGH";"24074";"La nacionalizacion del pueblo";"U691863";"vigente";"0";"1";"BO";"PITTSBURGH_24074";"2019-09-05 10:00:12.69"
"139";"2019-09-05";"86";"PITTSBURGH";"23844";"Mita y mitayos en la Villa de Potosí (siglos XVI - XVIII)";"U691869";"vigente";"0";"1";"BO";"PITTSBURGH_23844";"2019-09-05 10:03:45.56"
"140";"2019-09-06";"43";"PRINCETON:PEDIDOS";"11952";"Forma y política de lo urbano. La ciudad como idea, espacio y representación";"521421";"enviado";"0";"1";"CO";"PRINCETON_11952";"2019-10-04 09:51:54.26"
"141";"2019-09-06";"43";"PRINCETON:PEDIDOS";"15530";"Fábula del animal antiguo. Summa poética 1990 - 2009";"523631";"vigente";"0";"1";"CO";"PRINCETON_15530";"2019-09-06 10:27:51.62"
"142";"2019-09-06";"43";"PRINCETON:PEDIDOS";"15091";"Cine y pensamiento";"523631";"vigente";"0";"1";"CO";"PRINCETON_15091";"2019-09-06 10:58:57.22"
"143";"2019-09-06";"43";"PRINCETON:PEDIDOS";"15448";"Mercados vivos. Diversidad Agrícola y cocinas tradicionales";"523631";"vigente";"0";"1";"CO";"PRINCETON_15448";"2019-09-06 11:02:58.51"
"144";"2019-09-06";"43";"PRINCETON:PEDIDOS";"14632";"Rostro del mar: 60 poetas del caribe Colombiano";"523631";"vigente";"0";"1";"CO";"PRINCETON_14632";"2019-09-06 11:07:54.75"
"145";"2019-09-06";"43";"PRINCETON:PEDIDOS";"15409";"Política y poder en la amazonia. Estrategias de los pueblos indígenas en los nuevos escenarios de los países andinos";"523631";"vigente";"0";"1";"CO";"PRINCETON_15409";"2019-09-06 11:15:23.28"
"146";"2019-09-06";"43";"PRINCETON:PEDIDOS";"11650";"Políticas poblacionales para la Vida y la Equidad";"521421";"vigente";"0";"1";"CO";"PRINCETON_11650";"2019-09-06 11:15:51.08"
"147";"2019-09-06";"43";"PRINCETON:PEDIDOS";"11649";"Caso La Escombrera. Comuna 13, Medellín Colombia. Conceptos técnicos por Forenses Internacionales";"521421";"vigente";"0";"1";"CO";"PRINCETON_11649";"2019-09-06 11:20:13.42"
"148";"2019-09-06";"43";"PRINCETON:PEDIDOS";"15527";"Deporte, inclusión social y experiencias comunitarias en América Latina";"523631";"enviado";"0";"1";"CO";"PRINCETON_15527";"2019-09-16 15:51:24.25"
"149";"2019-09-06";"43";"PRINCETON:PEDIDOS";"10713";"Nosotras tejemos paz desde la cotidianidad. Conflictos y paz pensando desde el cuerpo, la experiencia y la práctica de mujeres populares";"521421";"vigente";"0";"1";"CO";"PRINCETON_10713";"2019-09-06 11:21:56.21"
"150";"2019-09-06";"43";"PRINCETON:PEDIDOS";"28644";"Colombianos creando soberanía alimentaria";"521421";"vigente";"0";"1";"CO";"PRINCETON_28644";"2019-09-06 14:10:36.63"
"151";"2019-09-06";"43";"PRINCETON:PEDIDOS";"10998";"Diseño participativo de un protocolo de protección con enfoque diferencial para defensores y defensoras de derechos humanos en contextos rurales";"521421";"vigente";"0";"1";"CO";"PRINCETON_10998";"2019-09-06 14:12:32.27"
"152";"2019-09-06";"43";"PRINCETON:PEDIDOS";"10703";"Rutas y senderos: transhumancia de las Pepas. Movilización Social por la Educación";"521421";"vigente";"0";"1";"CO";"PRINCETON_10703";"2019-09-06 14:14:29.25"
"153";"2019-09-06";"43";"PRINCETON:PEDIDOS";"20891";"Percepción  y ciudad: Análisis de la encuesta del programa Cali como vamos 2005-2014";"521421";"enviado";"0";"1";"CO";"PRINCETON_20891";"2019-10-03 11:09:04.66"
"154";"2019-09-09";"43";"PRINCETON:PEDIDOS";"13710";"Versiones";"521863";"enviado";"0";"1";"CO";"PRINCETON_13710";"2019-09-16 15:50:12.95"
"155";"2019-09-09";"43";"PRINCETON:PEDIDOS";"12903";"Cafe El Automatico: Arte, critica y esfera publica";"521863";"vigente";"1";"1";"CO";"PRINCETON_12903";"2019-10-01 11:36:23.62"
"156";"2019-09-09";"43";"PRINCETON:PEDIDOS";"13214";"Familia y Privación de la libertad en Colombia";"521863";"vigente";"1";"1";"CO";"PRINCETON_13214";"2019-10-01 11:39:31.10"
"157";"2019-09-09";"43";"PRINCETON:PEDIDOS";"15386";"Caracterización de la población afrodescendiente y rom asentada en el departamento de Tolima";"523637";"vigente";"0";"1";"CO";"PRINCETON_15386";"2019-09-09 09:59:16.41"
"158";"2019-09-09";"43";"PRINCETON:PEDIDOS";"2789";"Metropolizaciones Colombia-Chile: experiencias de Bogota, Medellin, Santiago y Concepcion";"477718";"vigente";"0";"1";"CO";"PRINCETON_2789";"2019-09-09 10:00:24.81"
"159";"2019-09-09";"43";"PRINCETON:PEDIDOS";"15420";"Historia del barrio Los comuneros";"523637";"vigente";"0";"1";"CO";"PRINCETON_15420";"2019-09-09 10:09:06.65"
"160";"2019-09-09";"43";"PRINCETON:PEDIDOS";"9740";"Asai (Euterpe Precatoria): Cadena de Valor en el Sur..";"477718";"vigente";"5";"1";"nd";"PRINCETON_9740";"2019-09-09 14:10:29.46"
"163";"2019-09-09";"43";"PRINCETON:PEDIDOS";"14537";"Fundaciones, inversión social y desarrollo";"523637";"vigente";"0";"1";"CO";"PRINCETON_14537";"2019-09-09 10:14:47.87"
"164";"2019-09-09";"43";"PRINCETON:PEDIDOS";"15275";"Potencial de la industria cultural y creativa de la música en el Tolima: escenario y perspectivas";"523637";"vigente";"0";"1";"CO";"PRINCETON_15275";"2019-09-09 10:16:41.91"
"165";"2019-09-09";"43";"PRINCETON:PEDIDOS";"14648";"Cinismo en la política forestal colombiana. El fracaso de la propuesta de ley forestales de 2006";"523637";"vigente";"0";"1";"CO";"PRINCETON_14648";"2019-09-09 10:31:37.79"
"166";"2019-09-09";"43";"PRINCETON:PEDIDOS";"1785";"Cultura gastronómica tradicional de la zona rural afro de la Guajira";"477718";"vigente";"1";"1";"CO";"PRINCETON_1785";"2019-10-01 11:14:37.63"
"167";"2019-09-09";"43";"PRINCETON:PEDIDOS";"18943";"Catalogo de plantas medicinales de mayor uso en comunidades indigenas del vaupes";"477718";"vigente";"0";"1";"nd";"PRINCETON_18943";"2019-09-09 10:38:57.40"
"169";"2019-09-09";"43";"PRINCETON:PEDIDOS";"15045";"Plan sectorial. Revolucion educativa 2006-2010";"523637";"vigente";"1";"1";"CO";"PRINCETON_15045";"2019-10-01 12:04:24.30"
"170";"2019-09-09";"43";"PRINCETON:PEDIDOS";"12888";"La Divina Comedia. Informe anual 2014. Sistema de informacion de agresiones contra defensores y defensoras de Derechos Humanos en Colombia / The Divine Comedy: 2014 Annual Report. Information system on attacks against Human Rights Defenders in Colombia, ISAAHRD";"523412";"vigente";"1";"1";"CO";"PRINCETON_12888";"2019-10-03 09:30:56.57"
"171";"2019-09-09";"43";"PRINCETON:PEDIDOS";"13775";"Toponimia, numismática y filatelia caldasianas";"523412";"vigente";"1";"1";"CO";"PRINCETON_13775";"2019-10-03 09:32:16.18"
"172";"2019-09-09";"43";"PRINCETON:PEDIDOS";"17773";"Suelos y tierras de Colombia. Tomo I";"523314";"vigente";"0";"1";"CO";"PRINCETON_17773";"2019-09-09 11:16:10.15"
"173";"2019-09-09";"43";"PRINCETON:PEDIDOS";"17774";"Suelos y tierras de Colombia. Tomo II";"523314";"vigente";"0";"1";"CO";"PRINCETON_17774";"2019-09-09 11:18:32.77"
"175";"2019-09-09";"43";"PRINCETON:PEDIDOS";"2674";"Coca: deforestacion, contaminacion y pobreza. Acercamiento a la actividad agronomica y la problematica ambiental de los cultivos de coca en Colombia";"477718";"vigente";"2";"1";"CO";"PRINCETON_2674";"2019-10-01 11:24:18.78"
"177";"2019-09-09";"43";"PRINCETON:PEDIDOS";"2737";"Interculturalidad y educación en la ciudad de Bogotá. Practicas y contextos";"477718";"vigente";"0";"1";"CO";"PRINCETON_2737";"2019-09-09 11:33:57.34"
"178";"2019-09-09";"43";"PRINCETON:PEDIDOS";"2763";"Simulacros de identidad. Modelos de mujer en revistas de glamour";"477718";"vigente";"1";"1";"CO";"PRINCETON_2763";"2019-10-01 11:29:57.19"
"179";"2019-09-09";"43";"PRINCETON:PEDIDOS";"2131";"Catálogo de plantas medicinales de mayor uso en comunidades indígenas del Vaupes";"477718";"vigente";"0";"1";"CO";"PRINCETON_2131";"2019-09-09 11:47:46.02"
"180";"2019-09-09";"43";"PRINCETON:PEDIDOS";"1738";"Macizo colombiano. Tierra de agua. Memorias Segunda Expedición Técnica y Científica al Macizo COlombiano";"477718";"vigente";"0";"1";"CO";"PRINCETON_1738";"2019-09-09 14:32:52.39"
"181";"2019-09-10";"43";"PRINCETON:PEDIDOS";"10806";"Guia del estado colombiano. Instituciones del poder publico";"463948";"vigente";"1";"1";"nd";"PRINCETON_10806";"2019-09-11 13:19:47.20"
"182";"2019-09-10";"43";"PRINCETON:PEDIDOS";"18205";"Las hermanas Borscht";"527398";"vigente";"0";"1";"CO";"PRINCETON_18205";"2019-09-10 11:48:51.60"
"183";"2019-09-10";"43";"PRINCETON:PEDIDOS";"18930";"El fútbol: esa metáfora";"527398";"vigente";"0";"1";"CO";"PRINCETON_18930";"2019-09-10 11:53:42.02"
"184";"2019-09-10";"43";"PRINCETON:PEDIDOS";"28663";"Análisis y evaluación de políticas públicas";"338364";"vigente";"0";"1";"CO";"PRINCETON_28663";"2019-09-10 16:29:19.12"
"185";"2019-09-10";"43";"PRINCETON:PEDIDOS";"28664";"Ensayos críticos de teoría política";"338364";"vigente";"0";"1";"CO";"PRINCETON_28664";"2019-09-10 16:35:41.36"
"186";"2019-09-10";"43";"PRINCETON:PEDIDOS";"28665";"Gobernanza y biosociedad : la juventud en Bogotá, 2006-2007";"338364";"vigente";"0";"1";"CO";"PRINCETON_28665";"2019-09-10 16:40:30.61"
"187";"2019-09-10";"43";"PRINCETON:PEDIDOS";"28666";"Mataron a Gaitán: 60 años";"338364";"vigente";"0";"1";"CO";"PRINCETON_28666";"2019-09-10 16:48:08.64"
"188";"2019-09-10";"43";"PRINCETON:PEDIDOS";"28667";"Colombia cafetera nacio en Cucuta, 1794-1870";"338364";"vigente";"0";"1";"CO";"PRINCETON_28667";"2019-09-10 16:55:27.08"
"189";"2019-09-11";"43";"PRINCETON:PEDIDOS";"19188";"Dolor que canta. La vida y la musica de Luis A. Calvo en la sociedad colombiana de comienzos del siglo XX";"527405";"vigente";"0";"1";"CO";"PRINCETON_19188";"2019-09-11 09:36:01.62"
"190";"2019-09-11";"43";"PRINCETON:PEDIDOS";"18563";"Música  para oídos zurdos. Rock y rap de resistencia en Bogota";"527405";"vigente";"0";"1";"CO";"PRINCETON_18563";"2019-09-11 09:38:41.98"
"191";"2019-09-11";"43";"PRINCETON:PEDIDOS";"17957";"Cuadernos tipográficos: Estudios y prácticas en torno a la Tipografía en el Sur-occidente colombiano 2014 - 2016";"527405";"vigente";"0";"1";"CO";"PRINCETON_17957";"2019-09-11 09:40:40.23"
"192";"2019-09-11";"43";"PRINCETON:PEDIDOS";"18610";"El asesinato de la verdad. Concentración mediática, redes y comunicación popular";"527405";"vigente";"0";"1";"CO";"PRINCETON_18610";"2019-09-11 09:43:26.42"
"193";"2019-09-11";"43";"PRINCETON:PEDIDOS";"18552";"Tunja desde 1900";"527405";"vigente";"0";"1";"CO";"PRINCETON_18552";"2019-09-11 10:04:44.17"
"194";"2019-09-11";"43";"PRINCETON:PEDIDOS";"18901";"Soberanía alimentaria y el agro-negocio forestal: Cajibió - Cauca";"527405";"vigente";"0";"1";"CO";"PRINCETON_18901";"2019-09-11 10:25:27.32"
"195";"2019-09-11";"43";"PRINCETON:PEDIDOS";"18629";"Estudios ecológicos en humedales de Bogotá. Aplicaciones para su evaluación, seguimiento y manejo";"527405";"vigente";"0";"1";"CO";"PRINCETON_18629";"2019-09-11 10:27:47.11"
"196";"2019-09-11";"43";"PRINCETON:PEDIDOS";"20882";"Gramática pedagógica de la lengua Cofán para bachillerato 10 y 11";"530868";"vigente";"0";"1";"CO";"PRINCETON_20882";"2019-09-11 10:45:38.97"
"197";"2019-09-11";"43";"PRINCETON:PEDIDOS";"20905";"Una feria para todos. 30 años de la Feria Internacional del Libro de Bogotá";"530868";"vigente";"0";"1";"CO";"PRINCETON_20905";"2019-09-11 10:48:26.85"
"198";"2019-09-11";"43";"PRINCETON:PEDIDOS";"20799";"Educar-nos + leernos = permanencia en la universidad";"530868";"enviado";"0";"1";"CO";"PRINCETON_20799";"2019-10-03 09:05:14.84"
"199";"2019-09-11";"43";"PRINCETON:PEDIDOS";"20607";"Dinamicas de comunicacion, uso y apropiacion de una pagina web: El caso de la asociacion de cabildos indigenas del Norte del Cauca";"530868";"vigente";"0";"1";"CO";"PRINCETON_20607";"2019-09-11 11:28:22.00"
"200";"2019-09-11";"43";"PRINCETON:PEDIDOS";"20889";"Aspectos ambientales, sociales y económicos de la cuenca hidrográfica del río Chicamocha. Una aproximación a su realidad. Informe preventivo";"530868";"vigente";"0";"1";"CO";"PRINCETON_20889";"2019-09-11 11:42:20.00"
"201";"2019-09-11";"43";"PRINCETON:PEDIDOS";"28670";"Extractivismo, conflictos y resistencias";;"vigente";"0";"1";"CO";"PRINCETON_28670";"2019-09-11 11:55:39.47"
"202";"2019-09-11";"43";"PRINCETON:PEDIDOS";"28671";"La cultura en la república del narco";"463948";"vigente";"0";"1";"CO";"PRINCETON_28671";"2019-09-11 13:16:45.53"
"203";"2019-09-11";"89";"MINNESOTA";"27404";"1825 - 2018, 193 años de subdesarrollo. Análisis y propuestas a la problemática de Bolivia";"POL-303354";"enviado";"0";"1";"BO";"MINNESOTA_27404";"2019-09-11 14:30:15.21"
"204";"2019-09-11";"89";"MINNESOTA";"27571";"Las misiones jesuíticas chiquitanas";"POL-303350";"enviado";"0";"1";"BO";"MINNESOTA_27571";"2019-09-18 14:45:12.50"
"205";"2019-09-11";"89";"MINNESOTA";"26350";"Pervivencia comunitaria bajo la continuidad colonial del Estado: los territorios indígenas en las políticas públicas y la legislación de Bolivia";"POL-303355";"enviado";"0";"1";"BO";"MINNESOTA_26350";"2019-09-11 14:29:38.03"
"206";"2019-09-11";"89";"MINNESOTA";"27233";"Hacia un nuevo contrato social. Propuestas para la reforma fiscal, el crecimiento diversificado y la reconstrucción democrática";"POL-303346";"enviado";"0";"1";"BO";"MINNESOTA_27233";"2019-09-17 15:25:57.41"
"207";"2019-09-11";"89";"MINNESOTA";"26347";"Japoneses pioneros en el oriente boliviano";"POL-303351";"enviado";"0";"1";"BO";"MINNESOTA_26347";"2019-09-11 14:30:50.34"
"208";"2019-09-11";"89";"MINNESOTA";"27561";"La desobediencia. Antología de ensayos feministas";"POL-303347";"enviado";"0";"1";"BO";"MINNESOTA_27561";"2019-09-11 14:30:37.42"
"209";"2019-09-11";"89";"MINNESOTA";"27325";"La destrucción del Estado de derecho como rasgo fundamental del ""proceso de cambio"". Doce años de derechos humanos en Bolivia (2006-2017)";"POL-303348";"vigente";"0";"1";"BO";"MINNESOTA_27325";"2019-09-11 14:07:43.23"
"210";"2019-09-11";"89";"MINNESOTA";"27641";"Las luchas históricas del movimiento fabril. Memoria y testimonios 1945 - 2017";"POL-303354";"enviado";"0";"1";"BO";"MINNESOTA_27641";"2019-09-18 14:44:56.18"
"211";"2019-09-11";"89";"MINNESOTA";"27604";"Cádiz en Charcas: conjeturas e indicios. Un ensayo sobre las fuentes de la constitución vitalicia";"POL-303356";"enviado";"0";"1";"BO";"MINNESOTA_27604";"2019-09-23 09:51:57.17"
"212";"2019-09-11";"89";"MINNESOTA";"26610";"Construyendo una sociolingüística del sur. Reflexiones sobre las culturas y lenguas indígenas de América Latina en los nuevos escenarios";"POL-303345";"vigente";"0";"1";"BO";"MINNESOTA_26610";"2019-09-11 14:11:54.32"
"213";"2019-09-11";"89";"MINNESOTA";"26292";"Diversidad institucional. Autonomías indígenas y Estado Plurinacional en Bolivia";"POL-303349";"enviado";"0";"1";"BO";"MINNESOTA_26292";"2019-09-17 10:56:28.81"
"214";"2019-09-11";"89";"MINNESOTA";"27550";"Amanecer en rojo. Marxismo, socialismo y comunismo en Bolivia (1880-1932)";"POL-303341";"vigente";"0";"1";"BO";"MINNESOTA_27550";"2019-09-11 14:19:05.55"
"215";"2019-09-11";"89";"MINNESOTA";"27536";"Defendiendo el techo fiscal. Curacas, ayllus y sindicatos en el gran ayllu Macha Norte de Potosí, Bolivia, 1930-1994. Catálogo del archivo del curacazgo de Macha Alasaya. Documentos de la familia Carbajal";"POL-303344";"enviado";"0";"1";"BO";"MINNESOTA_27536";"2019-09-11 14:29:51.73"
"216";"2019-09-11";"89";"MINNESOTA";"27573";"El Caudillo ilustrado. Ensayo sobre el populismo con traje ciudadano";"POL-303340";"vigente";"0";"1";"BO";"MINNESOTA_27573";"2019-09-11 14:20:29.27"
"217";"2019-09-11";"89";"MINNESOTA";"27586";"El espejo de precioso y otros cuentos";"POL-303331";"enviado";"0";"1";"BO";"MINNESOTA_27586";"2019-09-11 14:32:16.85"
"218";"2019-09-11";"89";"MINNESOTA";"27551";"El dedo en la llaga. Breve aproximación a la injerencia de Estados Unidos en América Latina y el Caribe desde la geopolítica y la seguridad nacional (1945 - 2019)";"POL-303343";"enviado";"0";"1";"BO";"MINNESOTA_27551";"2019-09-11 14:30:04.39"
"219";"2019-09-11";"89";"MINNESOTA";"27619";"El fantasma del bullying (acoso escolar cibernético)";"POL-303332";"enviado";"0";"1";"BO";"MINNESOTA_27619";"2019-09-11 14:31:32.06"
"220";"2019-09-11";"89";"MINNESOTA";"27642";"El occiso";"POL-303333";"enviado";"0";"1";"BO";"MINNESOTA_27642";"2019-09-11 14:31:16.09"
"221";"2019-09-11";"89";"MINNESOTA";"26078";"El oro de las estrellas extinguidas (textos huérfanos) 2015 -2019";"POL-303334";"enviado";"0";"1";"BO";"MINNESOTA_26078";"2019-09-11 14:31:03.59"
"222";"2019-09-11";"89";"MINNESOTA";"26617";"Elefantes en Tarija. De la dependencia del gas y el despilfarro a una propuesta de modelo autosostenible";"POL-303342";"vigente";"0";"1";"BO";"MINNESOTA_26617";"2019-09-11 14:24:44.98"
"223";"2019-09-11";"89";"MINNESOTA";"25679";"Iconografía y mitos indígenas en el arte";"POL-303335";"enviado";"0";"1";"BO";"MINNESOTA_25679";"2019-09-23 09:51:30.22"
"224";"2019-09-11";"89";"MINNESOTA";"26041";"La palabra y la trama, ensayos sobre literatura boliviana";"POL-303337";"enviado";"0";"1";"BO";"MINNESOTA_26041";"2019-09-12 16:55:32.72"
"225";"2019-09-11";"89";"MINNESOTA";"26614";"Los muertos más puros (novela). Mariposas amarillas (cuentos)";"POL-303336";"enviado";"0";"1";"BO";"MINNESOTA_26614";"2019-09-12 13:25:02.35"
"226";"2019-09-12";"89";"MINNESOTA";"27319";"Apostillas sobre la obra de Pablo Palacio";"POL-303361";"vigente";"0";"1";"EC";"MINNESOTA_27319";"2019-09-12 15:50:45.34"
"227";"2019-09-12";"89";"MINNESOTA";"27349";"De esclavizados a comuneros. Construcción de la etnicidad negra en Esmeraldas, siglo XVIII-XIX";"POL-303376";"vigente";"0";"1";"EC";"MINNESOTA_27349";"2019-09-12 15:52:08.62"
"228";"2019-09-12";"89";"MINNESOTA";"27557";"La prosperidad en las ciudades de Ecuador. Primer reporte del índice de Prosperidad Urbana (CPI) para 27 ciudades ecuatorianas";"POL-303375";"vigente";"0";"1";"EC";"MINNESOTA_27557";"2019-09-12 15:53:42.16"
"229";"2019-09-12";"89";"MINNESOTA";"27538";"Las clases sociales en el Ecuador. Una aproximación";"POL-303371";"vigente";"0";"1";"EC";"MINNESOTA_27538";"2019-09-12 15:54:36.15"
"230";"2019-09-12";"89";"MINNESOTA";"27554";"Lucha contra la corrupción. Investigación e innovación en América Latina. Ecuador 2018";"POL-303364";"vigente";"0";"1";"EC";"MINNESOTA_27554";"2019-09-12 15:56:15.81"
"231";"2019-09-12";"89";"MINNESOTA";"27539";"Medicina tradicional del Pueblo de Altaquer";"POL-303374";"vigente";"0";"1";"EC";"MINNESOTA_27539";"2019-09-12 15:57:12.59"
"232";"2019-09-12";"89";"MINNESOTA";"27541";"Tardes de mar y boleros";"POL-303362";"vigente";"0";"1";"EC";"MINNESOTA_27541";"2019-09-12 15:59:10.40"
"233";"2019-09-27";"86";"PITTSBURGH";"18676";"Las misiones de Mojos: el barroco en la frontera. Vol. II: Arte y Arquitectura";"U688721";"enviado";"0";"1";"BO";"PITTSBURGH_18676";"2019-09-27 13:21:44.31"
"234";"2019-10-01";"29";"EMORY";"22168";"Autorretrato disfrazado de artista, arte conceptual y fotografia en Colombia en los años setenta";"pol-68608";"vigente";"0";"1";"CO";"EMORY_22168";"2019-10-01 08:51:38.31"
"235";"2019-10-01";"43";"PRINCETON:PEDIDOS";"20901";"Pistas para narrar la memoria: Periodismo que reconstruye las verdades";"530864";"vigente";"0";"1";"CO";"PRINCETON_20901";"2019-10-01 09:34:36.21"
"236";"2019-10-01";"43";"PRINCETON:PEDIDOS";"20556";"Yo soy Darío Lemos. Obra completa";"530864";"vigente";"0";"1";"CO";"PRINCETON_20556";"2019-10-01 09:39:55.05"
"237";"2019-10-01";"43";"PRINCETON:PEDIDOS";"21700";"La medicina antigua. De Homero a la peste negra";"507516";"vigente";"0";"1";"CO";"PRINCETON_21700";"2019-10-01 09:49:08.94"
"238";"2019-10-01";"43";"PRINCETON:PEDIDOS";"13148";"Diagnostico Nacional de la Red Nacional de Bibliotecas Publicas";"521983";"vigente";"0";"1";"CO";"PRINCETON_13148";"2019-10-01 10:14:37.55"
"239";"2019-10-01";"43";"PRINCETON:PEDIDOS";"21847";"Todo sigue vivo!. Testimonios de la masacre de Mejor Esquina Cordoba, 3 de abril de 1988";"534002";"vigente";"0";"1";"CO";"PRINCETON_21847";"2019-10-01 10:15:07.99"
"240";"2019-10-01";"43";"PRINCETON:PEDIDOS";"13059";"DDR en Clave de prospectiva. Posibles escenarios de futuro para Colombia";"521983";"vigente";"0";"1";"CO";"PRINCETON_13059";"2019-10-01 10:16:28.37"
"241";"2019-10-01";"43";"PRINCETON:PEDIDOS";"13056";"Voz de las regiones";"521983";"vigente";"1";"1";"CO";"PRINCETON_13056";"2019-10-01 10:19:44.71"
"242";"2019-10-01";"43";"PRINCETON:PEDIDOS";"13238";"Etnoeducación afrocolombiana. Una propuesta para la paz. Memorias Pedagógicas del Diplomado par docentes de Cauca y Nariño";"521983";"vigente";"0";"1";"CO";"PRINCETON_13238";"2019-10-01 10:21:11.09"
"243";"2019-10-01";"43";"PRINCETON:PEDIDOS";"9989";"Participamos del Desarrollo Territorial. Balance social 2006";"521983";"vigente";"0";"1";"CO";"PRINCETON_9989";"2019-10-01 10:22:43.55"
"244";"2019-10-01";"43";"PRINCETON:PEDIDOS";"13336";"Balance de la política de atención al desplazamiento interno forzado en Colombia. 1999-2002";"521983";"vigente";"0";"1";"CO";"PRINCETON_13336";"2019-10-01 10:34:02.81"
"245";"2019-10-01";"43";"PRINCETON:PEDIDOS";"13060";"Conferencia internacional de Bosques Colombia. Pais de Bosques y vida";"521983";"vigente";"0";"1";"CO";"PRINCETON_13060";"2019-10-01 10:36:10.89"
"246";"2019-10-01";"43";"PRINCETON:PEDIDOS";"13128";"Dinamica de los suelos amazonicos. Procesos de degradacion y alternativas para su recuperacion";"521983";"vigente";"0";"1";"CO";"PRINCETON_13128";"2019-10-01 10:39:11.01"
"247";"2019-10-01";"43";"PRINCETON:PEDIDOS";"12879";"Valoracion de la Biodiversidad en la Ecorregion del Eje Cafetero";"521983";"vigente";"0";"1";"CO";"PRINCETON_12879";"2019-10-01 10:41:13.86"
"248";"2019-10-01";"43";"PRINCETON:PEDIDOS";"13144";"Plan de accion 2007 2008";"521983";"vigente";"0";"1";"CO";"PRINCETON_13144";"2019-10-01 10:42:52.93"
"249";"2019-10-01";"29";"EMORY";"22018";"Fotografía e imágen de la violencia política en Colombia";"POL-68608";"vigente";"0";"1";"CO";"EMORY_22018";"2019-10-01 10:49:06.21"
"250";"2019-10-01";"29";"EMORY";"27475";"Guerrilla marketing. Contrainsurgencia y capitalismo en Colombia";"POL-68606";"vigente";"0";"1";"CO";"EMORY_27475";"2019-10-01 10:51:20.37"
"251";"2019-10-01";"29";"EMORY";"21472";"Historias de guerra para tiempos de paz. Relatos de la delegacion de dialogos del Ejercito de Liberacion Nacional";"POL-68600";"vigente";"0";"1";"CO";"EMORY_21472";"2019-10-01 10:52:38.19"
"252";"2019-10-01";"29";"EMORY";"27462";"Venezuela migra: aspectos sensibles del éxodo hacia Colombia";"POL-68605";"vigente";"0";"1";"CO";"EMORY_27462";"2019-10-01 11:03:51.19"
"253";"2019-10-01";"29";"EMORY";"26158";"Violencia y ficción televisiva. El acontecimiento de los noventa. Imaginarios de la representación mediática de la violencia colombiana: series de fición televisiva de los noventa (1989-1999)";"POL-68598";"vigente";"0";"1";"CO";"EMORY_26158";"2019-10-01 11:05:25.10"
"254";"2019-10-03";"43";"PRINCETON:PEDIDOS";"18530";"Bloguerías";"527398";"enviado";"0";"1";"CO";"PRINCETON_18530";"2019-10-03 09:38:18.96"
"255";"2019-10-03";"43";"PRINCETON:PEDIDOS";"22108";"Puentes musicales sobre el mar caribe";"533901";"vigente";"0";"1";"CO";"PRINCETON_22108";"2019-10-03 09:52:25.21"
"256";"2019-10-03";"43";"PRINCETON:PEDIDOS";"21894";"La gente de La Macarena. Colonos, campesinos e institucionalidad local en la configuración social del territorio";"533938";"vigente";"0";"1";"CO";"PRINCETON_21894";"2019-10-03 09:53:33.11"
"257";"2019-10-03";"43";"PRINCETON:PEDIDOS";"21755";"La gestion de los personeros municipales en el gobierno territorial. Retos y recomendaciones para el posconflicto";"533938";"vigente";"0";"1";"CO";"PRINCETON_21755";"2019-10-03 09:54:32.41"
"258";"2019-10-03";"43";"PRINCETON:PEDIDOS";"21281";"La estabilidad en el empleo, el derecho al trabajo en Colombia. Estudio de derecho comparado";"533938";"vigente";"0";"1";"CO";"PRINCETON_21281";"2019-10-03 09:56:08.61"
"259";"2019-10-03";"43";"PRINCETON:PEDIDOS";"22120";"Fauna de Caño Cristales, serie de La Macarena, Meta, Colombia";"533938";"vigente";"0";"1";"CO";"PRINCETON_22120";"2019-10-03 09:57:57.60"
"260";"2019-10-03";"43";"PRINCETON:PEDIDOS";"22004";"Impacto del cambio climatico sobre el hábitat de la achira en Colombia. Proyeccion para el año 2020";"533938";"vigente";"0";"1";"CO";"PRINCETON_22004";"2019-10-03 09:59:44.00"
"261";"2019-10-03";"43";"PRINCETON:PEDIDOS";"21895";"Alberto Manrique Martín";"533001";"enviado";"0";"1";"CO";"PRINCETON_21895";"2019-10-03 11:05:59.67"
"262";"2019-10-03";"43";"PRINCETON:PEDIDOS";"21987";"Incentivo economico por compensacion de servicios ecosistemicos para la Cuenca Alta del Rio Combeima (Ibague-Colombia). Diseño y revision de condiciones para establecer el esquema en un sitio especifico";"533938";"vigente";"0";"1";"CO";"PRINCETON_21987";"2019-10-03 10:02:56.97"
"263";"2019-10-03";"43";"PRINCETON:PEDIDOS";"21680";"Gestion del riesgo en Colombia. Vulnerabilidad, reduccion y manejo dedesastres";"533938";"vigente";"0";"1";"CO";"PRINCETON_21680";"2019-10-03 10:04:39.67"
"264";"2019-10-03";"43";"PRINCETON:PEDIDOS";"21738";"Armero. Sorprendente realidad 1985-2017";"533901";"vigente";"0";"1";"CO";"PRINCETON_21738";"2019-10-03 10:05:58.44"
"265";"2019-10-03";"43";"PRINCETON:PEDIDOS";"22061";"Antirawa Juma Wakuaipa. Ruta para el fortaleciemiento de la educacion y gobierno propia wayuu";"533938";"enviado";"0";"1";"CO";"PRINCETON_22061";"2019-10-03 11:10:13.57"
"266";"2019-10-03";"43";"PRINCETON:PEDIDOS";"21852";"El plan urbanistico Ibague Futuro 1935";"533938";"vigente";"0";"1";"CO";"PRINCETON_21852";"2019-10-03 10:50:01.91"
"267";"2019-10-04";"68";"FIU";"24251";"Indios, negros y otros indeseables. Capitalismo, racismo y exclusion en America latina y el Caribe";"36958420-1";"vigente";"0";"1";"nd";"FIU_24251";"2019-10-04 10:02:58.45"
"268";"2019-10-04";"89";"MINNESOTA";"26239";"Viajes y viajeros en la región de Otavalo. Lilo Linke y el reportaje social en la sierra norte (I)";"POL-303379";"vigente";"0";"2";"EC";"MINNESOTA_26239";"2019-10-04 10:10:03.32"
"269";"2019-10-04";"89";"MINNESOTA";"26240";"Viajes y viajeros en la región de Otavalo. Lilo Linke y el reportaje social en la sierra norte (II)";"POL-303379";"vigente";"0";"1";"EC";"MINNESOTA_26240";"2019-10-04 10:10:38.41"
"270";"2019-10-04";"89";"MINNESOTA";"26216";"Viajes y viajeros en la región de Otavalo. Cronistas de raigambre indígena e hispánica (III)";"POL-303379";"vigente";"0";"1";"EC";"MINNESOTA_26216";"2019-10-04 10:11:31.93"
"271";"2019-10-04";"89";"MINNESOTA";"24619";"Los muertos siempre regresan ";"POL-281406";"vigente";"0";"1";"EC";"MINNESOTA_24619";"2019-10-04 10:48:06.54"
"272";"2019-10-04";"43";"PRINCETON:PEDIDOS";"18538";"Mecanismos de implementación de la cooperación internacional no reembolsable en el Ecuador ";"516079";"vigente";"0";"1";"EC";"PRINCETON_18538";"2019-10-04 10:56:10.98"
"273";"2019-10-04";"43";"PRINCETON:PEDIDOS";"18154";"Plan de desarrollo y ordenamiento territorial de San Mateo 2012-2022";"515795";"vigente";"0";"1";"EC";"PRINCETON_18154";"2019-10-04 11:08:20.62"
"274";"2019-10-04";"43";"PRINCETON:PEDIDOS";"18055";"Plan de desarrollo y ordenamiento territorial de Chumundé 2012-2022";"515795";"vigente";"0";"1";"EC";"PRINCETON_18055";"2019-10-04 11:08:20.62"
"275";"2019-10-04";"43";"PRINCETON:PEDIDOS";"17974";"Plan de desarrollo y ordenamiento territorial de Calderón 2012-2021. Gobierno Autónomo Descentralizado de Calderón";"515795";"vigente";"0";"1";"EC";"PRINCETON_17974";"2019-10-04 11:08:20.62"
"276";"2019-10-04";"43";"PRINCETON:PEDIDOS";"17969";"Plan de desarrollo y ordenamiento territorial de Atahualpa 2012-2021. Gobierno autónomo descentralizado de atahualpa";"515795";"vigente";"0";"1";"EC";"PRINCETON_17969";"2019-10-04 11:08:20.62"
"277";"2019-10-04";"43";"PRINCETON:PEDIDOS";"17971";"Plan de desarrollo y ordenamiento territorial de Chura 2012-2021";"515795";"vigente";"0";"1";"EC";"PRINCETON_17971";"2019-10-04 11:08:20.62"
"278";"2019-10-04";"43";"PRINCETON:PEDIDOS";"18537";"Memorias históricas de la ruralidad en el Ecuador";"515299";"enviado";"0";"1";"EC";"PRINCETON_18537";"2019-10-04 11:21:31.83"
"279";"2019-10-04";"43";"PRINCETON:PEDIDOS";"15892";"Kishwarmallki nawparimay. Cuento indígena";"515299";"vigente";"0";"1";"EC";"PRINCETON_15892";"2019-10-04 11:26:38.52"
"280";"2019-10-04";"43";"PRINCETON:PEDIDOS";"14978";"Los años del sida en Cartagena. Imaginarios, representaciones y subjetividades en la década del 80";;"vigente";"0";"1";"EC";"PRINCETON_14978";"2019-10-04 11:28:38.06"
"283";"2019-10-04";"43";"PRINCETON:PEDIDOS";"19245";"Aprender Bellas palabras. El cine de Pedro Costa. Comunidad, migraciones, ficciones";"516128";"vigente";"0";"1";"EC";"PRINCETON_19245";"2019-10-04 11:41:38.96"
"284";"2019-10-04";"90";"CAMBRIDGE";"25970";"Cambio climático y ciudades. Una guía para la acción ciudadana";"PO-101414";"vigente";"0";"1";"EC";"CAMBRIDGE_25970";"2019-10-04 17:14:05.28"
"285";"2019-10-04";"90";"CAMBRIDGE";"25838";"Tres culturas de la costa norte del Ecuador. Eperara siapidaara, chachi y afrodescendientes";"PO-101414";"vigente";"0";"1";"EC";"CAMBRIDGE_25838";"2019-10-04 17:57:50.57"
"286";"2019-10-04";"131";"IBEROAMERICANA";"22516";"Ya sintigo. La madera en el patio";"18091103046";"vigente";"0";"1";"EC";"IBEROAMERICANA_22516";"2019-10-04 18:13:27.14"
