"catalogo_id";"cat";"tipo";"registros";"estado";"nombre";"periodo";"gestion";"file";"pais";"send";"text";"catalogo_usuario";"ed"
"2";"C36";"blanket";"481";"cerrado";"Bibliografía Colombiana";"2do Trimestre";"2015";"corto";"Colombia";"";"";"2";"2018-08-25 13:19:32.72"
"4";"P96";"blanket";"105";"cerrado";"Bibliografía Peruana";"2do Trimestre";"2015";"corto";"Perú";"";"";"2";"2018-08-25 13:19:32.72"
"5";"P97";"blanket";"73";"cerrado";"Bibliografía Peruana";"";"2015";"largo";"Perú";"";"";"2";"2018-08-25 13:19:32.72"
"6";"P98";"blanket";"109";"cerrado";"Bibliografía Peruana";"";"2015";"largo";"Perú";"";"";"2";"2018-08-25 13:19:32.72"
"11";"P99";"blanket";"78";"cerrado";"Bibliografia Peruana";"Cuarto Trimestre";"2015";"corto";"Perú";"";"";"11";"2018-08-25 13:19:32.72"
"12";"P01";"blanket";"180";"cerrado";"Catalogo de Libros Peruanos";"Primer Trimestre";"2016";"corto";"Perú";"";"";"11";"2018-08-25 13:19:32.72"
"13";"H56";"blanket";"100";"cerrado";"Catalogo de Libros Chilenos";"Primer Trimestre";"2016";"corto";"Chile";"";"";"11";"2019-01-16 09:49:15.05"
"16";"C37";"blanket";"253";"cerrado";"BIBLIOGRAFIA COLOMBIANA";"";"2015";"largo";"Colombia";"";"";"8";"2018-08-25 13:19:32.72"
"17";"C38";"blanket";"319";"cerrado";"BIBLIOGRAFIA COLOMBIANA";"";"2015";"largo";"Colombia";"";"";"2";"2018-08-25 13:19:32.72"
"18";"C39";"blanket";"420";"cerrado";"BIBLIOGARFIA COLOMBIANA";"";"2015";"largo";"Colombia";"";"";"2";"2018-08-25 13:19:32.72"
"19";"C40";"blanket";"106";"cerrado";"BIBLIOGRAFIA COLOMBIANA";"";"2016";"largo";"Colombia";"";"";"2";"2018-08-25 13:19:32.72"
"20";"C41";"blanket";"504";"cerrado";"BIBLIOGRAFIA COLOMBIANA";"";"2016";"corto";"Colombia";"";"";"2";"2018-08-25 13:19:32.72"
"22";"E48";"blanket";"239";"cerrado";"Bibliografía Ecuatoriana";"";"2015";"largo";"Ecuador";"";"";"8";"2018-08-25 13:19:32.72"
"23";"E49";"blanket";"200";"cerrado";"Bibliografía Ecuatoriana";"";"2015";"largo";"Ecuador";"";"";"8";"2018-08-25 13:19:32.72"
"24";"E50";"blanket";"230";"cerrado";"Bibliografía Ecuatoriana";"";"2015";"largo";"Ecuador";"";"";"8";"2018-08-25 13:19:32.72"
"26";"V60";"blanket";"196";"cerrado";"Bibliografía Venezolana";"";"2015";"largo";"";"";"";"8";"2018-08-25 13:19:32.72"
"27";"V61";"blanket";"209";"cerrado";"Bibliografía Venezolana";"";"2015";"largo";"Venezuela";"";"";"8";"2018-08-25 13:19:32.72"
"29";"V62";"blanket";"266";"cerrado";"Bibliografía Venezolana";"";"2015";"largo";"Venezuela";"";"";"8";"2018-08-25 13:19:32.72"
"30";"Donaciones";"pasado";"658";"abierto";"Donaciones";"";"0000";"corto";"";"";"";"12";"2019-10-26 17:33:34.39"
"31";"Marco01";"pasado";"440";"procesando";"Pasados 01";"Junio 2016";"2016";"corto";"varios";"";"";"12";"2018-08-25 13:19:32.72"
"32";"V63";"blanket";"192";"cerrado";"Bibliografía Venezolana";"Segundo Trimestre";"2016";"largo";"Venezuela";"";"";"8";"2018-08-25 13:19:32.72"
"33";"H57";"blanket";"136";"cerrado";"Bibliografía Chilena";"Junio - Julio";"2016";"corto";"Chile";"";"";"12";"2018-08-25 13:19:32.72"
"34";"DONACION";"oferta";"16";"abierto";"DONACION";"JULIO";"2016";"corto";"varios";"";"";"11";"2018-08-25 13:19:32.72"
"35";"P02";"blanket";"212";"cerrado";"Bibliografia Peruana";"Tercer Trimestre";"2016";"largo";"Perú";"";"";"11";"2018-08-25 13:19:32.72"
"36";"B93";"blanket";"129";"cerrado";"Bibliografía Boliviana";"";"0000";"largo";"Bolivia";"";"";"8";"2018-08-25 13:19:32.72"
"37";"B94";"blanket";"192";"cerrado";"Bibliografía Boliviana";"";"0000";"largo";"Bolivia";"";"";"8";"2018-08-25 13:19:32.72"
"38";"B95";"blanket";"234";"cerrado";"Bibliografía Boliviana";"";"0000";"largo";"Bolivia";"";"";"8";"2018-08-25 13:19:32.72"
"39";"B96";"blanket";"185";"cerrado";"Bibliografía Boliviana";"";"0000";"largo";"Bolivia";"";"";"8";"2018-08-25 13:19:32.72"
"40";"B97";"blanket";"200";"cerrado";"Bibliografía Boliviana";"";"0000";"corto";"Bolivia";"";"";"2";"2018-08-25 13:19:32.72"
"41";"B98";"blanket";"228";"cerrado";"Bibliografía Boliviana";"";"0000";"largo";"Bolivia";"";"";"8";"2018-08-25 13:19:32.72"
"42";"B10";"blanket";"222";"cerrado";"Bibliografía Boliviana";"";"2016";"largo";"Bolivia";"";"";"8";"2018-08-25 13:19:32.72"
"43";"B11";"blanket";"178";"cerrado";"Bibliografía Boliviana";"";"2016";"largo";"Bolivia";"";"";"8";"2018-08-25 13:19:32.72"
"44";"B12";"blanket";"200";"cerrado";"Bibliografía Boliviana";"";"2016";"largo";"Bolivia";"";"";"8";"2018-08-25 13:19:32.72"
"45";"C42";"blanket";"263";"cerrado";"Bibliografía Colombiana";"Tercer Trimestre";"2016";"corto";"Colombia";"";"";"11";"2018-08-25 13:19:32.72"
"46";"E51";"blanket";"106";"cerrado";"Bibliografía Ecuatoriana";"Tercer Trimestre";"2016";"largo";"Ecuador";"";"";"11";"2018-08-25 13:19:32.72"
"47";"B13";"blanket";"183";"cerrado";"Bibliografía Boliviana";"Abril - Junio";"2016";"largo";"Bolivia";"";"";"8";"2018-08-25 13:19:32.72"
"48";"V64";"blanket";"203";"cerrado";"Bibliografia Venezolana";"Tercer Trimestre";"2016";"corto";"Venezuela";"";"";"11";"2018-08-25 13:19:32.72"
"49";"B14";"blanket";"218";"cerrado";"Bibliografia Boliviana";"Julio-Septiembre";"2016";"largo";"Bolivia";"";"";"53";"2018-08-25 13:19:32.72"
"50";"O001";"oferta";"8";"abierto";"Catalogo de Oferta";"Prueba";"2016";"corto";"varios";"";"";"8";"2018-08-25 13:19:32.72"
"52";"Pasados 02";"pasado";"999";"cerrado";"Libros pasados";"";"2016";"corto";"varios";"";"";"53";"2018-08-25 13:19:32.72"
"53";"Donacion03";"blanket";"125";"procesando";"Catalogo Donaciones Colombia Julio 2016";"";"2016";"corto";"Colombia";"";"";"53";"2018-08-25 13:19:32.72"
"54";"Donacion04";"blanket";"256";"abierto";"Catalogo Donaciones Colombia Agosto 2016";"";"2016";"corto";"Colombia";"";"";"53";"2019-01-24 12:03:00.67"
"56";"Yale2";"oferta";"34";"abierto";"Bibliografia Juridica";"Agosto 2016";"2016";"corto";"Colombia";"";"";"12";"2018-08-25 13:19:32.72"
"57";"STANFORD";"oferta";"30";"abierto";"STANFORD PASADOS";"2014-2015";"2016";"corto";"varios";"";"";"12";"2018-08-25 13:19:32.72"
"58";"Stanford1";"pasado";"335";"abierto";"Facturas pasadas";"2014-2015";"2016";"corto";"varios";"";"";"12";"2020-01-10 12:58:00.28"
"59";"P03";"blanket";"218";"cerrado";"Bibliografía Peruana";"Cuarto Trimestre";"2016";"largo";"Perú";"";"";"11";"2018-08-25 13:19:32.72"
"60";"HEF001";"blanket";"201";"abierto";"Efimeros Chile";"Septiembre 2016";"2016";"corto";"Chile";"";"";"12";"2018-08-25 13:19:32.72"
"61";"E52";"blanket";"258";"cerrado";"Bibliografía Ecuatoriana";"Cuarto trimestre";"2016";"largo";"Ecuador";"";"";"11";"2018-08-25 13:19:32.72"
"62";"MPEC01";"pasado";"5";"abierto";"BIBLIOGRAFIA ECUATORIANA PASADOS";"2010-2015";"2016";"corto";"Ecuador";"";"";"12";"2019-02-14 14:56:41.82"
"64";"MPEC02";"blanket";"130";"abierto";"BIBLIOGRAFIA ECUATORIANA PASADOS";"2010-2015";"2016";"corto";"Ecuador";"";"";"12";"2018-08-25 13:19:32.72"
"65";"MBOD01";"blanket";"219";"abierto";"Bibliografia Colombiana Bodega";"Pasados";"2016";"corto";"Colombia";"";"";"12";"2018-11-08 14:37:16.64"
"66";"MBDG02";"oferta";"135";"abierto";"Oferta Colombia Bodega";"Octubre 2016";"2016";"corto";"Colombia";"";"";"12";"2018-08-25 13:19:32.72"
"67";"C43";"blanket";"259";"cerrado";"Bibliografia Colombiana";"Cuarto Trimestre";"2016";"largo";"Colombia";"";"";"11";"2018-08-25 13:19:32.72"
"68";"H58";"blanket";"341";"cerrado";"Bibliografia Chilena";"Cuarto Trimestre";"2016";"largo";"Chile";"";"";"11";"2018-08-25 13:19:32.72"
"69";"B15";"blanket";"200";"cerrado";"Bibliografia Boliviana";"Octubre - Diciembre";"2016";"largo";"Bolivia";"";"";"53";"2018-08-25 13:19:32.72"
"70";"OH001";"oferta";"0";"abierto";"Libros Chilenos";"Novedades antes de la Feria";"2016";"corto";"Chile";"";"";"11";"2018-08-25 13:19:32.72"
"71";"V65";"blanket";"223";"cerrado";"Bibliografia Venezolana";"Cuarto Trimestre";"2016";"corto";"Venezuela";"";"";"11";"2018-08-25 13:19:32.72"
"72";"HORT01";"pasado";"291";"abierto";"Bibliografia Boliviana";"Noviembre 2016";"2016";"corto";"Bolivia";"";"";"12";"2018-11-30 14:57:10.95"
"73";"H59";"blanket";"234";"cerrado";"Bibliografia Chilena";"Cuarto Trimestre";"2016";"corto";"Chile";"";"";"11";"2018-08-25 13:19:32.72"
"74";"C44";"blanket";"342";"cerrado";"Bibliografia Colombiana";"Primer Trimestre";"2017";"largo";"Colombia";"";"";"11";"2018-08-25 13:19:32.72"
"76";"B16";"blanket";"130";"cerrado";"Bibliografía Boliviana";"Enero - Marzo";"2017";"largo";"Bolivia";"";"";"53";"2018-08-25 13:19:32.72"
"77";"E53";"blanket";"168";"cerrado";"Bibliografia Ecuatorianja";"Primer Trimestre";"2017";"largo";"Ecuador";"";"";"11";"2018-08-25 13:19:32.72"
"78";"V66";"blanket";"220";"cerrado";"Bibliografia Venezolana";"Primer Trimestre";"2017";"largo";"Venezuela";"";"";"11";"2018-08-25 13:19:32.72"
"79";"P04";"blanket";"265";"cerrado";"Bibliografia Peruana Provisional";"Febrero 2016";"2017";"largo";"Perú";"";"";"12";"2018-08-25 13:19:32.72"
"80";"C45";"blanket";"370";"cerrado";"Bibliografía Colombiana";"Segundo Trimestre";"2017";"largo";"Colombia";"";"";"11";"2018-08-25 13:19:32.72"
"81";"Donacion05";"oferta";"48";"abierto";"Donacion05";"2017";"2017";"corto";"Bolivia";"";"";"53";"2018-08-25 13:19:32.72"
"82";"D006";"blanket";"25";"abierto";"Bolivia";"2017";"2017";"corto";"Bolivia";"";"";"53";"2018-08-25 13:19:32.72"
"83";"Pasados 03";"pasado";"0";"cerrado";"Pasados 2017";"";"2017";"corto";"varios";"";"";"53";"2018-08-25 13:19:32.72"
"84";"Pasados 04";"pasado";"999";"cerrado";"Pasados";"";"2017";"corto";"varios";"";"";"53";"2018-08-25 13:19:32.72"
"85";"E54";"blanket";"135";"cerrado";"Bibliografia Ecuatoriana";"Segundo Trimestre";"2017";"largo";"Ecuador";"";"";"11";"2018-08-25 13:19:32.72"
"86";"B17";"blanket";"200";"cerrado";"Bibliografia Boliviana";"Abril - Junio";"2017";"largo";"Bolivia";"";"";"53";"2018-08-25 13:19:32.72"
"87";"www";"oferta";"26";"abierto";"www";"";"2017";"corto";"varios";"";"";"12";"2018-08-25 13:19:32.72"
"88";"C46";"blanket";"250";"cerrado";"Bibliografia Colombiana";"Tercer Trimestre";"2017";"largo";"Colombia";"";"";"11";"2018-08-25 13:19:32.72"
"89";"Pasados 05";"pasado";"999";"abierto";"Pasados 05";"";"2017";"corto";"varios";"";"";"53";"2018-08-25 13:19:32.72"
"90";"B18";"blanket";"171";"cerrado";"Bibliografía Boliviana";"Julio-Septiembre";"2017";"largo";"Bolivia";"";"";"53";"2018-08-25 13:19:32.72"
"91";"E55";"blanket";"184";"cerrado";"Bibliografia Ecuatoriana";"Tercer Trimestre";"2017";"largo";"Ecuador";"";"";"11";"2018-08-25 13:19:32.72"
"93";"V67";"blanket";"148";"cerrado";"Bibliografía Venezolana";"Tercer Trimestre";"2017";"largo";"Venezuela";"";"";"11";"2018-08-25 13:19:32.72"
"94";"H60";"blanket";"201";"cerrado";"Bibliografia Chilena";"Tercer Trimestre";"2017";"largo";"Chile";"";"";"11";"2019-07-03 20:11:55.19"
"95";"P05";"blanket";"132";"cerrado";"Bibliografía Peruana";"Tercer Trimestre";"2017";"largo";"Perú";"";"";"11";"2018-08-25 13:19:32.72"
"96";"C47";"blanket";"219";"cerrado";"Bibliografía Colombiana";"Cuarto Trimestre";"2017";"largo";"Colombia";"";"";"11";"2018-08-25 13:19:32.72"
"97";"HORTY8";"pasado";"126";"abierto";"HORTY8";"";"2017";"largo";"Bolivia";"";"";"53";"2018-09-11 13:52:21.11"
"98";"B19";"blanket";"142";"cerrado";"Bibliografia Boliviana";"Octubre - Diciembre";"2017";"largo";"Bolivia";"";"";"53";"2018-08-25 13:19:32.72"
"99";"MARC_1";"pasado";"0";"abierto";"Pasados de Miami";"Octubre-Noviembre 2017";"2017";"corto";"Colombia";"";"";"12";"2018-08-25 13:19:32.72"
"100";"E56";"blanket";"204";"cerrado";"Bibliografia Ecuatoriana";"Cuarto Trimestre";"2017";"largo";"Ecuador";"";"";"11";"2018-08-25 13:19:32.72"
"101";"Marco_Mia";"oferta";"10";"abierto";"Oferta_Mia";"";"2017";"corto";"varios";"";"";"12";"2018-08-25 13:19:32.72"
"102";"DonacionB6";"blanket";"83";"abierto";"Bolivia Donaciones";"";"2017";"corto";"Bolivia";"";"";"53";"2019-05-06 16:42:47.71"
"103";"Harvard-Of";"oferta";"13";"abierto";"Marco_Harvard";"";"2017";"corto";"varios";"";"";"12";"2018-08-25 13:19:32.72"
"104";"V68";"blanket";"118";"cerrado";"Bibliografia Venezolana";"Cuarto Trimestre";"2017";"largo";"Venezuela";"";"";"53";"2018-08-25 13:19:32.72"
"105";"Yale_Ofert";"oferta";"9";"abierto";"Yale-Oferta_Law";"";"2017";"corto";"varios";"";"";"12";"2018-08-25 13:19:32.72"
"106";"PRIN_MIA";"oferta";"12";"abierto";"PRIN_MIA";"";"2017";"corto";"varios";"";"";"12";"2018-08-25 13:19:32.72"
"107";"P06";"blanket";"121";"cerrado";"Bibliografia Peruana";"Noviembre - Diciembre";"2017";"largo";"Perú";"";"";"11";"2018-08-25 13:19:32.72"
"108";"HORTY9";"pasado";"253";"abierto";"HORTY9";"Diciembre 2017";"2017";"corto";"Bolivia";"";"";"53";"2018-09-11 13:52:03.29"
"109";"Pasados_06";"pasado";"939";"abierto";"Pasados_06";"";"2018";"corto";"varios";"";"";"12";"2019-11-19 12:51:29.32"
"110";"MICH_H60";"oferta";"48";"abierto";"MICH_H60";"";"2018";"corto";"varios";"";"";"12";"2018-08-25 13:19:32.72"
"111";"FIU_Chile";"oferta";"8";"abierto";"FIU_Chile";"";"2018";"corto";"varios";"";"";"12";"2018-08-25 13:19:32.72"
"112";"H61";"blanket";"184";"cerrado";"Bibliografia Chilena";"Cuarto Trimestre 2017";"2018";"largo";"Chile";"";"";"12";"2018-10-11 16:52:17.39"
"113";"E57";"blanket";"310";"cerrado";"Bibliografia Ecuatoriana";"Primer Trimestre 2018";"2018";"largo";"Ecuador";"";"";"53";"2018-08-25 13:19:32.72"
"114";"B20";"blanket";"161";"cerrado";"Bibliografia Boliviana";"Enero - Marzo";"2018";"largo";"Bolivia";"";"";"53";"2018-08-25 13:19:32.72"
"115";"C48";"blanket";"297";"cerrado";"Bibliografia Colombiana";"Primer Trimestre";"2018";"largo";"Colombia";"";"";"53";"2018-08-25 13:19:32.72"
"116";"V69";"blanket";"150";"cerrado";"Bibliografia Venezolana";"Primer Trimestre";"2018";"largo";"Venezuela";"";"";"53";"2018-08-25 13:19:32.72"
"117";"C49";"blanket";"448";"cerrado";"Bibliografia Colombiana";"Segundo Trimestre";"2018";"largo";"Colombia";"";"";"53";"2018-08-25 13:19:32.72"
"118";"CAM_CHILE";"oferta";"23";"abierto";"CAM_CHILE";"Oferta";"2018";"none";"varios";"";"";"12";"2018-09-06 19:59:35.76"
"119";"P07";"blanket";"158";"cerrado";"Bibliografía Peruana";"Enero a Junio";"2018";"largo";"Perú";"";"";"11";"2018-08-25 13:19:32.72"
"120";"V70";"blanket";"145";"cerrado";"Bibliografia Venezolana";"Segundo Trimestre";"2018";"largo";"Venezuela";"";"";"12";"2018-08-25 13:19:32.72"
"121";"B21";"blanket";"170";"cerrado";"Bibliografia Boliviana";"Abril - Junio";"2018";"largo";"Bolivia";"";"";"53";"2018-08-25 13:19:32.72"
"122";"C50";"blanket";"353";"cerrado";"Bibliografía Colombiana";"Segundo Trimestre";"2018";"largo";"Colombia";"";"";"8";"2018-08-25 13:19:32.72"
"123";"FERIA_2018";"blanket";"4";"abierto";"FERIA_2018";"Mayo 2018";"2018";"largo";"Colombia";"";"";"12";"2018-08-25 13:19:32.72"
"124";"E58";"blanket";"187";"cerrado";"Bibliografia Ecuatoriana";"Segundo Trimestre 2018";"2018";"largo";"Ecuador";"";"";"12";"2018-10-21 22:37:15.87"
"125";"P08";"blanket";"119";"cerrado";"Libros Peruanos";"Julio - Septiembre";"2018";"largo";"Perú";"";"";"11";"2018-11-20 09:44:35.84"
"126";"B22";"blanket";"145";"cerrado";"Bibliografia Boliviana";"Julio - Septiembre";"2018";"largo";"Bolivia";"";"";"53";"2018-10-30 10:41:48.99"
"127";"HORTY10";"pasado";"393";"abierto";"HORTY10";"Julio 2018";"2018";"corto";"Bolivia";"";"";"12";"2019-09-24 09:58:28.01"
"128";"C51";"blanket";"391";"cerrado";"Bibliografia Colombiana";"Tercer Trimestre";"2018";"largo";"Colombia";"";"";"11";"2018-11-06 10:17:18.28"
"129";"V71";"blanket";"158";"cerrado";"Bibliografia Venezolana";"Tercer Trimestre";"2018";"largo";"Venezuela";"";"";"11";"2019-02-01 08:57:39.79"
"130";"BOLIVIA";"blanket";"76";"abierto";"Bibliografia Boliviana";"2018";"2018";"corto";"Bolivia";"";"";"53";"2019-12-04 15:34:39.28"
"131";"H62";"blanket";"86";"cerrado";"Bibliografia Chilena";"Segundo Semestre 2018";"2018";"largo";"Chile";"";"";"12";"2019-04-27 18:07:33.85"
"132";"B23";"blanket";"126";"cerrado";"Bibliografia Boliviana";"Octubre - Diciembre";"2018";"largo";"Bolivia";"";"";"53";"2019-01-10 09:03:06.25"
"133";"E59";"blanket";"120";"cerrado";"Bibliografia Ecuatoriana";"2018";"2018";"largo";"Ecuador";"";"";"11";"2019-01-30 20:40:37.63"
"134";"C52";"blanket";"263";"cerrado";"Bibliografia Colombiana";"Cuarto Trimestre 2018";"2018";"largo";"Colombia";"";"";"12";"2019-02-12 16:45:07.63"
"135";"COLOMBIA01";"blanket";"16";"abierto";"DONACION COLOMBIA";"2018-2019";"2018";"largo";"Colombia";"";"";"12";"2019-07-19 18:02:07.52"
"136";"P09";"blanket";"82";"cerrado";"Libros Peruanos";"Diciembre - Febrero";"2018";"largo";"Perú";"";"";"11";"2019-03-25 13:22:23.14"
"137";"B24";"blanket";"187";"cerrado";"Bibliografía Boliviana";"Enero - Marzo";"2019";"largo";"Bolivia";"";"";"53";"2019-04-23 14:59:33.63"
"138";"E60";"blanket";"125";"cerrado";"Bibliografia Ecuatoriana";"Enero ";"2019";"largo";"Ecuador";"";"";"11";"2019-03-28 17:05:50.03"
"139";"C53";"blanket";"150";"cerrado";"Bibliografía Colombiana";"Enero ";"2019";"largo";"Colombia";"";"";"11";"2019-03-15 10:37:30.70"
"140";"V72";"blanket";"67";"cerrado";"Bibliografia Venezolana";"Primer Trimestre 2019";"2019";"largo";"Venezuela";"";"";"12";"2019-06-21 13:22:07.62"
"141";"C54";"blanket";"153";"cerrado";"Bibliografia Colombiana";"Marzo";"2019";"largo";"Colombia";"";"";"11";"2019-04-27 10:14:32.77"
"142";"E61";"blanket";"148";"cerrado";"Bibliografia Ecuatoriana";"Abril 2019";"2019";"largo";"Ecuador";"";"";"11";"2019-05-08 09:30:53.32"
"143";"B25";"blanket";"133";"cerrado";"Bibliografia Boliviana";"Abril - Junio";"2019";"largo";"Bolivia";"";"";"53";"2019-08-14 12:53:11.16"
"144";"C55";"blanket";"143";"cerrado";"Bibliografia Colombiana";"Abril 2019";"2019";"largo";"Colombia";"";"";"12";"2019-05-29 22:39:23.26"
"145";"H63";"blanket";"105";"cerrado";"Bibliografia Chilena";"Primer Semestre 2019";"2019";"largo";"Chile";"";"";"12";"2019-08-21 10:00:12.66"
"146";"E62";"blanket";"86";"";"Bibliotgrafia Ecuatoriana";"Mayo 2019";"2019";"largo";"Ecuador";"";"";"12";"2019-10-22 16:09:32.22"
"147";"C56";"blanket";"150";"cerrado";"Bibliografia Colombiana";"Mayo";"2019";"largo";"Colombia";"";"";"11";"2019-06-21 15:08:32.24"
"148";"P10";"blanket";"84";"cerrado";"Bibliografía Peruana";"Abril";"2019";"largo";"Perú";"";"";"11";"2019-06-21 18:45:43.83"
"149";"C57";"blanket";"150";"cerrado";"Bibliografia Colombiana";"Junio";"2019";"largo";"Colombia";"";"";"11";"2019-08-18 23:53:18.06"
"150";"C58";"blanket";"150";"cerrado";"Bibliografia Colombiana";"Julio";"2019";"largo";"Colombia";"";"";"11";"2019-09-26 18:19:25.28"
"151";"C59";"blanket";"150";"cerrado";"Bibliografia Colombiana";"Agosto 2019";"2019";"largo";"Colombia";"";"";"11";"2019-10-10 21:00:50.16"
"152";"H64";"blanket";"87";"abierto";"Bibliografía Chilena";"Julio";"2019";"largo";"Chile";"";"";"8";"2019-08-23 11:44:41.62"
"153";"V73";"blanket";"109";"cerrado";"Bibliografia Venezolana";"Segundo Trimestre";"2019";"largo";"Venezuela";"";"";"12";"2019-12-05 10:06:27.75"
"154";"E63";"blanket";"161";"cerrado";"Bibliografia Ecuatoriana";"Julio-Septiembre";"2019";"largo";"Ecuador";"";"";"12";"2019-10-30 08:31:27.17"
"155";"10";"blanket";"14";"abierto";"Bibliografía Venezolana - Especial";"Julio";"2019";"largo";"Venezuela";"";"";"53";"2019-07-12 14:37:04.85"
"156";"B26";"blanket";"185";"cerrado";"Bibliografía Boliviana";"Julio - Septiembre";"2019";"largo";"Bolivia";"";"";"53";"2019-09-30 19:48:52.56"
"157";"prueba_uno";"oferta";"0";"abierto";"otros";"xx";"2019";"none";"varios";"";"";"53";"2019-07-21 21:10:32.57"
"158";"P.Bol.Of";"blanket";"4";"abierto";"Pasados de Boliva para ofertar";"Antes del 2017";"2019";"largo";"Bolivia";"";"";"162";"2019-08-02 11:40:51.58"
"159";"P.Chi.Of";"blanket";"49";"abierto";"Pasados de Chile para ofertar";"Antes de 2017";"2019";"largo";"Chile";"";"";"162";"2019-11-07 14:11:52.70"
"160";"P.Peru.Of";"blanket";"22";"abierto";"Pasados de Peru para ofertar";"Antes de 2017";"2019";"largo";"Perú";"";"";"162";"2019-11-29 14:06:30.62"
"161";"C60";"blanket";"150";"cerrado";"Bibliografia Colombiana";"Junio-Julio";"2019";"largo";"Colombia";"";"";"11";"2019-10-14 09:24:09.92"
"162";"H65";"blanket";"164";"cerrado";"Bibliografia Chilena";"Agosto-Octubre";"2019";"largo";"Chile";"";"";"12";"2019-10-07 16:47:58.93"
"163";"P11";"blanket";"94";"cerrado";"Libros Peruanos";"Agosto-Octubre";"2019";"largo";"Perú";"";"";"11";"2019-10-29 15:20:34.31"
"164";"C61";"blanket";"151";"cerrado";"Bibliografia Colombiana";"Agosto-Septiembre";"2019";"largo";"Colombia";"";"";"12";"2019-11-22 09:33:26.63"
"165";"B27";"blanket";"133";"abierto";"Bibliografía Boliviana";"Octubre - Diciembre";"2019";"largo";"Bolivia";"";"";"54";"2020-01-16 15:10:17.10"
"166";"E64";"blanket";"206";"procesando";"Bibliografia Ecuatoriana";"Octubre 2019";"2019";"largo";"Ecuador";"";"";"11";"2020-01-15 10:44:32.45"
"167";"VENPASADO";"blanket";"27";"abierto";"VENEZUELA PASADOS";"2019";"2019";"largo";"Venezuela";"";"";"12";"2019-10-26 21:27:53.73"
"168";"C62";"blanket";"134";"abierto";"Bibliografia Colombiana";"Octubre - Noviembre";"2019";"largo";"Colombia";"";"";"12";"2020-01-17 16:10:23.30"
"169";"V74";"blanket";"23";"abierto";"Bibliografia Venezolana";"Tercer Trimestre";"2019";"largo";"Venezuela";"";"";"11";"2019-12-04 09:34:50.83"
"170";"E65";"blanket";"0";"abierto";"Bibliografia Ecuatoriana";"Enero";"2020";"largo";"Ecuador";"";"";"12";"2020-01-17 08:50:23.01"
