"descripcion";"grupo";"tema";"order";"tipo";"orderT";"ed"
"ADMINISTRACION";"CIENCIAS SOCIALES";"POLITICA - ECONOMIA - ECONOMIA POLITICA";"2";"NO LITERATURA";"2";"2018-08-25 13:30:08.93"
"ADMINISTRACION PUBLICA";"CIENCIAS SOCIALES";"POLITICA - ECONOMIA - ECONOMIA POLITICA";"2";"NO LITERATURA";"2";"2018-08-25 13:30:08.93"
"AGRICULTURA";"RECURSOS NATURALES";"ECOLOGIA - MEDIO AMBIENTE - AGRICULTURA - AGROPECUARIA - RECURSOS NATURALES";"4";"NO LITERATURA";"2";"2018-08-25 13:30:08.93"
"AGRONOMIA";"RECURSOS NATURALES";"ECOLOGIA - MEDIO AMBIENTE - AGRICULTURA - AGROPECUARIA - RECURSOS NATURALES";"4";"NO LITERATURA";"2";"2018-08-25 13:30:08.93"
"AGROPECUARIA";"RECURSOS NATURALES";"ECOLOGIA - MEDIO AMBIENTE - AGRICULTURA - AGROPECUARIA - RECURSOS NATURALES";"4";"NO LITERATURA";"2";"2018-08-25 13:30:08.93"
"ANATOMIA";"CIENCIAS APLICADAS";"SOCIOLOGIA - ANTROPOLOGIA - ETNOLOGIA - EDUCACION";"3";"NO LITERATURA";"2";"2018-08-25 13:30:08.93"
"ANTROPOLOGIA";"CIENCIAS SOCIALES";"SOCIOLOGIA - ANTROPOLOGIA - ETNOLOGIA - EDUCACION";"3";"NO LITERATURA";"2";"2018-08-25 13:30:08.93"
"ANTROPOLOGIA FISICA";"CIENCIAS PURAS";"SOCIOLOGIA - ANTROPOLOGIA - ETNOLOGIA - EDUCACION";"3";"NO LITERATURA";"2";"2018-08-25 13:30:08.93"
"ANUARIOS";"CIENCIAS SOCIALES";"SOCIOLOGIA - ANTROPOLOGIA - ETNOLOGIA - EDUCACION";"3";"NO LITERATURA";"2";"2018-08-25 13:30:08.93"
"ANUARIOS (CONGRESOS)";"PUBLICACIONES OFICIALES";"SOCIOLOGIA - ANTROPOLOGIA - ETNOLOGIA - EDUCACION";"3";"NO LITERATURA";"2";"2018-08-25 13:30:08.93"
"ANUARIOS (NO OFICIALES)";"OBRAS DE REFERENCIA";"SOCIOLOGIA - ANTROPOLOGIA - ETNOLOGIA - EDUCACION";"3";"NO LITERATURA";"2";"2018-08-25 13:30:08.93"
"ARQUEOLOGIA";"CIENCIAS PURAS";"SOCIOLOGIA - ANTROPOLOGIA - ETNOLOGIA - EDUCACION";"3";"NO LITERATURA";"2";"2018-08-25 13:30:08.93"
"ARQUITECTURA";"ARTES";"ARTE - LITERATURA - BIBLIOGRAFIA - BIOGRAFIA - ENSAYO";"1";"LITERATURA";"1";"2018-08-25 13:30:08.93"
"ARTES";"ARTES";"ARTE - LITERATURA - BIBLIOGRAFIA - BIOGRAFIA - ENSAYO";"1";"LITERATURA";"1";"2018-08-25 13:30:08.93"
"ARTES PLASTICAS";"ARTES";"ARTE - LITERATURA - BIBLIOGRAFIA - BIOGRAFIA - ENSAYO";"1";"LITERATURA";"1";"2018-08-25 13:30:08.93"
"ARTESANIA";"ARTES";"ARTE - LITERATURA - BIBLIOGRAFIA - BIOGRAFIA - ENSAYO";"1";"LITERATURA";"1";"2018-08-25 13:30:08.93"
"ASTRONOMIA";"CIENCIAS PURAS";"SOCIOLOGIA - ANTROPOLOGIA - ETNOLOGIA - EDUCACION";"3";"NO LITERATURA";"2";"2018-08-25 13:30:08.93"
"BIBLIA";"RELIGION";"SOCIOLOGIA - ANTROPOLOGIA - ETNOLOGIA - EDUCACION";"3";"NO LITERATURA";"2";"2018-08-25 13:30:08.93"
"BIBLIOGRAFIA";"OBRAS DE REFERENCIA";"ARTE - LITERATURA - BIBLIOGRAFIA - BIOGRAFIA - ENSAYO";"1";"LITERATURA";"1";"2018-08-25 13:30:08.93"
"BIBLIOTECOLOGIA E INFORMACION";"OBRAS DE REFERENCIA";"ARTE - LITERATURA - BIBLIOGRAFIA - BIOGRAFIA - ENSAYO";"1";"LITERATURA";"1";"2018-08-25 13:30:08.93"
"BIODIVERSIDAD";"RECURSOS NATURALES";"ECOLOGIA - MEDIO AMBIENTE - AGRICULTURA - AGROPECUARIA - RECURSOS NATURALES";"4";"NO LITERATURA";"2";"2018-08-25 13:30:08.93"
"BIOGRAFIAS";"OBRAS DE REFERENCIA";"ARTE - LITERATURA - BIBLIOGRAFIA - BIOGRAFIA - ENSAYO";"1";"LITERATURA";"1";"2018-08-25 13:30:08.93"
"BIOLOGIA";"CIENCIAS PURAS";"ECOLOGIA - MEDIO AMBIENTE - AGRICULTURA - AGROPECUARIA - RECURSOS NATURALES";"4";"NO LITERATURA";"2";"2018-08-25 13:30:08.93"
"BOLETINES";"PUBLICACIONES PERIODICAS";"PUBLICACIONES PERIODICAS";"6";"PUBLICACIONES PERIODICAS";"4";"2018-08-25 13:30:08.93"
"BOTANICA";"CIENCIAS PURAS";"ECOLOGIA - MEDIO AMBIENTE - AGRICULTURA - AGROPECUARIA - RECURSOS NATURALES";"4";"NO LITERATURA";"2";"2018-08-25 13:30:08.93"
"CARTOGRAFIA";"GEOGRAFIA E HISTORIA";"ECOLOGIA - MEDIO AMBIENTE - AGRICULTURA - AGROPECUARIA - RECURSOS NATURALES";"4";"NO LITERATURA";"2";"2018-08-25 13:30:08.93"
"CERAMICA";"ARTES";"ARTE - LITERATURA - BIBLIOGRAFIA - BIOGRAFIA - ENSAYO";"1";"LITERATURA";"1";"2018-08-25 13:30:08.93"
"CIBERNETICA";"CIENCIAS APLICADAS";"SOCIOLOGIA - ANTROPOLOGIA - ETNOLOGIA - EDUCACION";"3";"NO LITERATURA";"2";"2018-08-25 13:30:08.93"
"CIENCIA Y TECNOLOGIA";"CIENCIAS PURAS";"SOCIOLOGIA - ANTROPOLOGIA - ETNOLOGIA - EDUCACION";"3";"NO LITERATURA";"2";"2018-08-25 13:30:08.93"
"CIENCIAS APLICADAS";"CIENCIAS APLICADAS";"SOCIOLOGIA - ANTROPOLOGIA - ETNOLOGIA - EDUCACION";"3";"NO LITERATURA";"2";"2018-08-25 13:30:08.93"
"CIENCIAS NATURALES";"CIENCIAS PURAS";"ECOLOGIA - MEDIO AMBIENTE - AGRICULTURA - AGROPECUARIA - RECURSOS NATURALES";"4";"NO LITERATURA";"2";"2018-08-25 13:30:08.93"
"CIENCIAS PURAS";"CIENCIAS PURAS";"SOCIOLOGIA - ANTROPOLOGIA - ETNOLOGIA - EDUCACION";"3";"NO LITERATURA";"2";"2018-08-25 13:30:08.93"
"CIENCIAS SOCIALES";"CIENCIAS SOCIALES";"SOCIOLOGIA - ANTROPOLOGIA - ETNOLOGIA - EDUCACION";"3";"NO LITERATURA";"2";"2018-08-25 13:30:08.93"
"CINE";"ARTES";"ARTE - LITERATURA - BIBLIOGRAFIA - BIOGRAFIA - ENSAYO";"1";"LITERATURA";"1";"2018-08-25 13:30:08.93"
"CIUDADES";"GEOGRAFIA E HISTORIA";"ECOLOGIA - MEDIO AMBIENTE - AGRICULTURA - AGROPECUARIA - RECURSOS NATURALES";"4";"NO LITERATURA";"2";"2018-08-25 13:30:08.93"
"CODIGOS";"DERECHO";"DERECHO";"5";"DERECHO";"3";"2018-08-25 13:30:08.93"
"COLECCIONES";"PUBLICACIONES PERIODICAS";"PUBLICACIONES PERIODICAS";"6";"PUBLICACIONES PERIODICAS";"4";"2018-08-25 13:30:08.93"
"COMUNICACION Y PERIODISMO";"CIENCIAS SOCIALES";"SOCIOLOGIA - ANTROPOLOGIA - ETNOLOGIA - EDUCACION";"3";"NO LITERATURA";"2";"2018-08-25 13:30:08.93"
"CONOCIMIENTO";"FILOSOFIA";"SOCIOLOGIA - ANTROPOLOGIA - ETNOLOGIA - EDUCACION";"3";"NO LITERATURA";"2";"2018-08-25 13:30:08.93"
"CONSTITUCIONES";"DERECHO";"DERECHO";"5";"DERECHO";"3";"2018-08-25 13:30:08.93"
"CONSTRUCCION";"ARTES";"ARTE - LITERATURA - BIBLIOGRAFIA - BIOGRAFIA - ENSAYO";"1";"LITERATURA";"1";"2018-08-25 13:30:08.93"
"COSTUMBRES Y FOLKLORE";"CIENCIAS SOCIALES";"SOCIOLOGIA - ANTROPOLOGIA - ETNOLOGIA - EDUCACION";"3";"NO LITERATURA";"2";"2018-08-25 13:30:08.93"
"CREENCIAS RELIGIOSAS";"RELIGION";"SOCIOLOGIA - ANTROPOLOGIA - ETNOLOGIA - EDUCACION";"3";"NO LITERATURA";"2";"2018-08-25 13:30:08.93"
"CRITICA LITERARIA";"LITERATURA";"ARTE - LITERATURA - BIBLIOGRAFIA - BIOGRAFIA - ENSAYO";"1";"LITERATURA";"1";"2018-08-25 13:30:08.93"
"CRONICA";"GEOGRAFIA E HISTORIA";"SOCIOLOGIA - ANTROPOLOGIA - ETNOLOGIA - EDUCACION";"3";"NO LITERATURA";"2";"2018-08-25 13:30:08.93"
"CUENTO";"LITERATURA";"ARTE - LITERATURA - BIBLIOGRAFIA - BIOGRAFIA - ENSAYO";"1";"LITERATURA";"1";"2018-08-25 13:30:08.93"
"CULTIVOS AGRICOLAS";"RECURSOS NATURALES";"ECOLOGIA - MEDIO AMBIENTE - AGRICULTURA - AGROPECUARIA - RECURSOS NATURALES";"4";"NO LITERATURA";"2";"2018-08-25 13:30:08.93"
"CULTURA";"CIENCIAS SOCIALES";"SOCIOLOGIA - ANTROPOLOGIA - ETNOLOGIA - EDUCACION";"3";"NO LITERATURA";"2";"2018-08-25 13:30:08.93"
"DANZA";"ARTES";"ARTE - LITERATURA - BIBLIOGRAFIA - BIOGRAFIA - ENSAYO";"1";"LITERATURA";"1";"2018-08-25 13:30:08.93"
"DEMOGRAFIA";"CIENCIAS SOCIALES";"SOCIOLOGIA - ANTROPOLOGIA - ETNOLOGIA - EDUCACION";"3";"NO LITERATURA";"2";"2018-08-25 13:30:08.93"
"DEPORTES";"RECREACION";"SOCIOLOGIA - ANTROPOLOGIA - ETNOLOGIA - EDUCACION";"3";"NO LITERATURA";"2";"2018-08-25 13:30:08.93"
"DERECHO";"DERECHO";"DERECHO";"5";"DERECHO";"3";"2018-08-25 13:30:08.93"
"DESCUBRIMIENTOS";"GEOGRAFIA E HISTORIA";"SOCIOLOGIA - ANTROPOLOGIA - ETNOLOGIA - EDUCACION";"3";"NO LITERATURA";"2";"2018-08-25 13:30:08.93"
"DIBUJO";"ARTES";"ARTE - LITERATURA - BIBLIOGRAFIA - BIOGRAFIA - ENSAYO";"1";"LITERATURA";"1";"2018-08-25 13:30:08.93"
"DICCIONARIOS";"OBRAS DE REFERENCIA";"ARTE - LITERATURA - BIBLIOGRAFIA - BIOGRAFIA - ENSAYO";"1";"LITERATURA";"1";"2018-08-25 13:30:08.93"
"DOSSIERS";"PUBLICACIONES PERIODICAS";"PUBLICACIONES PERIODICAS";"6";"PUBLICACIONES PERIODICAS";"4";"2018-08-25 13:30:08.93"
"DRAMA";"LITERATURA";"ARTE - LITERATURA - BIBLIOGRAFIA - BIOGRAFIA - ENSAYO";"1";"LITERATURA";"1";"2018-08-25 13:30:08.93"
"ECOLOGIA";"RECURSOS NATURALES";"ECOLOGIA - MEDIO AMBIENTE - AGRICULTURA - AGROPECUARIA - RECURSOS NATURALES";"4";"NO LITERATURA";"2";"2018-08-25 13:30:08.93"
"ECONOMIA";"CIENCIAS SOCIALES";"POLITICA - ECONOMIA - ECONOMIA POLITICA";"2";"NO LITERATURA";"2";"2018-08-25 13:30:08.93"
"EDUCACION";"CIENCIAS SOCIALES";"SOCIOLOGIA - ANTROPOLOGIA - ETNOLOGIA - EDUCACION";"3";"NO LITERATURA";"2";"2018-08-25 13:30:08.93"
"ELECTRICIDAD";"CIENCIAS APLICADAS";"SOCIOLOGIA - ANTROPOLOGIA - ETNOLOGIA - EDUCACION";"3";"NO LITERATURA";"2";"2018-08-25 13:30:08.93"
"ENCICLOPEDIAS";"OBRAS DE REFERENCIA";"ARTE - LITERATURA - BIBLIOGRAFIA - BIOGRAFIA - ENSAYO";"1";"LITERATURA";"1";"2018-08-25 13:30:08.93"
"ENSAYO";"LITERATURA";"ARTE - LITERATURA - BIBLIOGRAFIA - BIOGRAFIA - ENSAYO";"1";"LITERATURA";"1";"2018-08-25 13:30:08.93"
"ESCULTURA";"ARTES";"ARTE - LITERATURA - BIBLIOGRAFIA - BIOGRAFIA - ENSAYO";"1";"LITERATURA";"1";"2018-08-25 13:30:08.93"
"ESTADISTICA";"CIENCIAS SOCIALES";"SOCIOLOGIA - ANTROPOLOGIA - ETNOLOGIA - EDUCACION";"3";"NO LITERATURA";"2";"2018-08-25 13:30:08.93"
"ETICA";"FILOSOFIA";"SOCIOLOGIA - ANTROPOLOGIA - ETNOLOGIA - EDUCACION";"3";"NO LITERATURA";"2";"2018-08-25 13:30:08.93"
"ETNOGRAFIA";"CIENCIAS SOCIALES";"SOCIOLOGIA - ANTROPOLOGIA - ETNOLOGIA - EDUCACION";"3";"NO LITERATURA";"2";"2018-08-25 13:30:08.93"
"ETNOLOGIA";"CIENCIAS SOCIALES";"SOCIOLOGIA - ANTROPOLOGIA - ETNOLOGIA - EDUCACION";"3";"NO LITERATURA";"2";"2018-08-25 13:30:08.93"
"EVANGELISMO";"RELIGION";"SOCIOLOGIA - ANTROPOLOGIA - ETNOLOGIA - EDUCACION";"3";"NO LITERATURA";"2";"2018-08-25 13:30:08.93"
"EXPEDICIONES CIENTIFICAS";"GEOGRAFIA E HISTORIA";"SOCIOLOGIA - ANTROPOLOGIA - ETNOLOGIA - EDUCACION";"3";"NO LITERATURA";"2";"2018-08-25 13:30:08.93"
"FILOLOGIA";"LINGUISTICA";"SOCIOLOGIA - ANTROPOLOGIA - ETNOLOGIA - EDUCACION";"3";"NO LITERATURA";"2";"2018-08-25 13:30:08.93"
"FILOSOFIA";"FILOSOFIA";"SOCIOLOGIA - ANTROPOLOGIA - ETNOLOGIA - EDUCACION";"3";"NO LITERATURA";"2";"2018-08-25 13:30:08.93"
"FISICA";"CIENCIAS PURAS";"SOCIOLOGIA - ANTROPOLOGIA - ETNOLOGIA - EDUCACION";"3";"NO LITERATURA";"2";"2018-08-25 13:30:08.93"
"FONETICA";"LINGUISTICA";"SOCIOLOGIA - ANTROPOLOGIA - ETNOLOGIA - EDUCACION";"3";"NO LITERATURA";"2";"2018-08-25 13:30:08.93"
"FORESTACION";"RECURSOS NATURALES";"ECOLOGIA - MEDIO AMBIENTE - AGRICULTURA - AGROPECUARIA - RECURSOS NATURALES";"4";"NO LITERATURA";"2";"2018-08-25 13:30:08.93"
"FOTOGRAFIA";"ARTES";"ARTE - LITERATURA - BIBLIOGRAFIA - BIOGRAFIA - ENSAYO";"1";"LITERATURA";"1";"2018-08-25 13:30:08.93"
"GACETAS JUDICIALES";"DERECHO";"DERECHO";"5";"DERECHO";"3";"2018-08-25 13:30:08.93"
"GASTRONOMIA";"ARTES";"ARTE - LITERATURA - BIBLIOGRAFIA - BIOGRAFIA - ENSAYO";"1";"LITERATURA";"1";"2018-08-25 13:30:08.93"
"GENEROS LITERARIOS";"LITERATURA";"ARTE - LITERATURA - BIBLIOGRAFIA - BIOGRAFIA - ENSAYO";"1";"LITERATURA";"1";"2018-08-25 13:30:08.93"
"GENETICA";"CIENCIAS APLICADAS";"ECOLOGIA - MEDIO AMBIENTE - AGRICULTURA - AGROPECUARIA - RECURSOS NATURALES";"4";"NO LITERATURA";"2";"2018-08-25 13:30:08.93"
"GEOGRAFIA";"GEOGRAFIA E HISTORIA";"ECOLOGIA - MEDIO AMBIENTE - AGRICULTURA - AGROPECUARIA - RECURSOS NATURALES";"4";"NO LITERATURA";"2";"2018-08-25 13:30:08.93"
"GEOGRAFIA E HISTORIA";"GEOGRAFIA E HISTORIA";"ECOLOGIA - MEDIO AMBIENTE - AGRICULTURA - AGROPECUARIA - RECURSOS NATURALES";"4";"NO LITERATURA";"2";"2018-08-25 13:30:08.93"
"GEOLOGIA";"CIENCIAS PURAS";"ECOLOGIA - MEDIO AMBIENTE - AGRICULTURA - AGROPECUARIA - RECURSOS NATURALES";"4";"NO LITERATURA";"2";"2018-08-25 13:30:08.93"
"GRABADOS";"ARTES";"ARTE - LITERATURA - BIBLIOGRAFIA - BIOGRAFIA - ENSAYO";"1";"LITERATURA";"1";"2018-08-25 13:30:08.93"
"GRAMATICA";"LINGUISTICA";"SOCIOLOGIA - ANTROPOLOGIA - ETNOLOGIA - EDUCACION";"3";"NO LITERATURA";"2";"2018-08-25 13:30:08.93"
"GUIAS (NO TURISTICAS)";"OBRAS DE REFERENCIA";"ARTE - LITERATURA - BIBLIOGRAFIA - BIOGRAFIA - ENSAYO";"1";"LITERATURA";"1";"2018-08-25 13:30:08.93"
"HISTORIA";"GEOGRAFIA E HISTORIA";"SOCIOLOGIA - ANTROPOLOGIA - ETNOLOGIA - EDUCACION";"3";"NO LITERATURA";"2";"2018-08-25 13:30:08.93"
"HISTORIA DE LA FILOSOFIA";"FILOSOFIA";"SOCIOLOGIA - ANTROPOLOGIA - ETNOLOGIA - EDUCACION";"3";"NO LITERATURA";"2";"2018-08-25 13:30:08.93"
"HISTORIA DEL DERECHO";"DERECHO";"DERECHO";"5";"DERECHO";"3";"2018-08-25 13:30:08.93"
"IDIOMAS";"LINGUISTICA";"SOCIOLOGIA - ANTROPOLOGIA - ETNOLOGIA - EDUCACION";"3";"NO LITERATURA";"2";"2018-08-25 13:30:08.93"
"IGLESIA - HISTORIA";"RELIGION";"SOCIOLOGIA - ANTROPOLOGIA - ETNOLOGIA - EDUCACION";"3";"NO LITERATURA";"2";"2018-08-25 13:30:08.93"
"INDUSTRIAS";"CIENCIAS APLICADAS";"POLITICA - ECONOMIA - ECONOMIA POLITICA";"2";"NO LITERATURA";"2";"2018-08-25 13:30:08.93"
"INFORMES";"PUBLICACIONES OFICIALES";"SOCIOLOGIA - ANTROPOLOGIA - ETNOLOGIA - EDUCACION";"3";"NO LITERATURA";"2";"2018-08-25 13:30:08.93"
"INGENIERIA";"CIENCIAS APLICADAS";"SOCIOLOGIA - ANTROPOLOGIA - ETNOLOGIA - EDUCACION";"3";"NO LITERATURA";"2";"2018-08-25 13:30:08.93"
"JUEGOS";"RECREACION";"SOCIOLOGIA - ANTROPOLOGIA - ETNOLOGIA - EDUCACION";"3";"NO LITERATURA";"2";"2018-08-25 13:30:08.93"
"LEGISLACION - JURISPRUDENCIA";"DERECHO";"DERECHO";"5";"DERECHO";"3";"2018-08-25 13:30:08.93"
"LENGUAJE";"LINGUISTICA";"SOCIOLOGIA - ANTROPOLOGIA - ETNOLOGIA - EDUCACION";"3";"NO LITERATURA";"2";"2018-08-25 13:30:08.93"
"LEYENDAS";"CIENCIAS SOCIALES";"SOCIOLOGIA - ANTROPOLOGIA - ETNOLOGIA - EDUCACION";"3";"NO LITERATURA";"2";"2018-08-25 13:30:08.93"
"LIMITES GEOGRAFICOS";"GEOGRAFIA E HISTORIA";"ECOLOGIA - MEDIO AMBIENTE - AGRICULTURA - AGROPECUARIA - RECURSOS NATURALES";"4";"NO LITERATURA";"2";"2018-08-25 13:30:08.93"
"LINGUISTICA";"LINGUISTICA";"SOCIOLOGIA - ANTROPOLOGIA - ETNOLOGIA - EDUCACION";"3";"NO LITERATURA";"2";"2018-08-25 13:30:08.93"
"LITERATURA";"LITERATURA";"ARTE - LITERATURA - BIBLIOGRAFIA - BIOGRAFIA - ENSAYO";"1";"LITERATURA";"1";"2018-08-25 13:30:08.93"
"LOGICA";"FILOSOFIA";"SOCIOLOGIA - ANTROPOLOGIA - ETNOLOGIA - EDUCACION";"3";"NO LITERATURA";"2";"2018-08-25 13:30:08.93"
"MANUFACTURAS";"CIENCIAS APLICADAS";"ECOLOGIA - MEDIO AMBIENTE - AGRICULTURA - AGROPECUARIA - RECURSOS NATURALES";"4";"NO LITERATURA";"2";"2018-08-25 13:30:08.93"
"MANUSCRITOS";"OBRAS DE REFERENCIA";"ARTE - LITERATURA - BIBLIOGRAFIA - BIOGRAFIA - ENSAYO";"1";"LITERATURA";"1";"2018-08-25 13:30:08.93"
"MATEMATICAS";"CIENCIAS PURAS";"SOCIOLOGIA - ANTROPOLOGIA - ETNOLOGIA - EDUCACION";"3";"NO LITERATURA";"2";"2018-08-25 13:30:08.93"
"MEDICINA";"CIENCIAS APLICADAS";"ECOLOGIA - MEDIO AMBIENTE - AGRICULTURA - AGROPECUARIA - RECURSOS NATURALES";"4";"NO LITERATURA";"2";"2018-08-25 13:30:08.93"
"MEDICINA TRADICIONAL";"CIENCIAS APLICADAS";"ECOLOGIA - MEDIO AMBIENTE - AGRICULTURA - AGROPECUARIA - RECURSOS NATURALES";"4";"NO LITERATURA";"2";"2018-08-25 13:30:08.93"
"MEDIO AMBIENTE";"RECURSOS NATURALES";"ECOLOGIA - MEDIO AMBIENTE - AGRICULTURA - AGROPECUARIA - RECURSOS NATURALES";"4";"NO LITERATURA";"2";"2018-08-25 13:30:08.93"
"MEDIOS DE COMUNICACION";"CIENCIAS SOCIALES";"SOCIOLOGIA - ANTROPOLOGIA - ETNOLOGIA - EDUCACION";"3";"NO LITERATURA";"2";"2018-08-25 13:30:08.93"
"MEMORIAS (GOBIERNOS, FF.AA., POLICIA)";"PUBLICACIONES OFICIALES";"ECOLOGIA - MEDIO AMBIENTE - AGRICULTURA - AGROPECUARIA - RECURSOS NATURALES";"4";"NO LITERATURA";"2";"2018-08-25 13:30:08.93"
"MEMORIAS (NO OFICIALES)";"OBRAS DE REFERENCIA";"ARTE - LITERATURA - BIBLIOGRAFIA - BIOGRAFIA - ENSAYO";"1";"LITERATURA";"1";"2018-08-25 13:30:08.93"
"METAFISICA";"FILOSOFIA";"SOCIOLOGIA - ANTROPOLOGIA - ETNOLOGIA - EDUCACION";"3";"NO LITERATURA";"2";"2018-08-25 13:30:08.93"
"METODOLOGIA E INVESTIGACION";"OBRAS DE REFERENCIA";"ARTE - LITERATURA - BIBLIOGRAFIA - BIOGRAFIA - ENSAYO";"1";"LITERATURA";"1";"2018-08-25 13:30:08.93"
"MISIONES";"RELIGION";"SOCIOLOGIA - ANTROPOLOGIA - ETNOLOGIA - EDUCACION";"3";"NO LITERATURA";"2";"2018-08-25 13:30:08.93"
"MITOLOGIA";"CIENCIAS SOCIALES";"SOCIOLOGIA - ANTROPOLOGIA - ETNOLOGIA - EDUCACION";"3";"NO LITERATURA";"2";"2018-08-25 13:30:08.93"
"MORAL";"RELIGION";"SOCIOLOGIA - ANTROPOLOGIA - ETNOLOGIA - EDUCACION";"3";"NO LITERATURA";"2";"2018-08-25 13:30:08.93"
"MUSICA";"ARTES";"ARTE - LITERATURA - BIBLIOGRAFIA - BIOGRAFIA - ENSAYO";"1";"LITERATURA";"1";"2018-08-25 13:30:08.93"
"NO LITERATURA";"NO LITERATURA";"SOCIOLOGIA - ANTROPOLOGIA - ETNOLOGIA - EDUCACION";"3";"NO LITERATURA";"2";"2018-08-25 13:30:08.93"
"NOVELA";"LITERATURA";"ARTE - LITERATURA - BIBLIOGRAFIA - BIOGRAFIA - ENSAYO";"1";"LITERATURA";"1";"2018-08-25 13:30:08.93"
"NUTRICION";"CIENCIAS SOCIALES";"SOCIOLOGIA - ANTROPOLOGIA - ETNOLOGIA - EDUCACION";"3";"NO LITERATURA";"2";"2018-08-25 13:30:08.93"
"OBRAS DE REFERENCIA";"OBRAS DE REFERENCIA";"ARTE - LITERATURA - BIBLIOGRAFIA - BIOGRAFIA - ENSAYO";"1";"LITERATURA";"1";"2018-08-25 13:30:08.93"
"OCULTISMO";"FILOSOFIA";"SOCIOLOGIA - ANTROPOLOGIA - ETNOLOGIA - EDUCACION";"3";"NO LITERATURA";"2";"2018-08-25 13:30:08.93"
"OTRAS RELIGIONES";"RELIGION";"SOCIOLOGIA - ANTROPOLOGIA - ETNOLOGIA - EDUCACION";"3";"NO LITERATURA";"2";"2018-08-25 13:30:08.93"
"PAISES";"GEOGRAFIA E HISTORIA";"ECOLOGIA - MEDIO AMBIENTE - AGRICULTURA - AGROPECUARIA - RECURSOS NATURALES";"4";"NO LITERATURA";"2";"2018-08-25 13:30:08.93"
"PALEONTOLOGIA";"CIENCIAS PURAS";"SOCIOLOGIA - ANTROPOLOGIA - ETNOLOGIA - EDUCACION";"3";"NO LITERATURA";"2";"2018-08-25 13:30:08.93"
"PARAPSICOLOGIA";"FILOSOFIA";"SOCIOLOGIA - ANTROPOLOGIA - ETNOLOGIA - EDUCACION";"3";"NO LITERATURA";"2";"2018-08-25 13:30:08.93"
"PINTURA";"ARTES";"ARTE - LITERATURA - BIBLIOGRAFIA - BIOGRAFIA - ENSAYO";"1";"LITERATURA";"1";"2018-08-25 13:30:08.93"
"POESIA";"LITERATURA";"ARTE - LITERATURA - BIBLIOGRAFIA - BIOGRAFIA - ENSAYO";"1";"LITERATURA";"1";"2018-08-25 13:30:08.93"
"POLITICA";"CIENCIAS SOCIALES";"POLITICA - ECONOMIA - ECONOMIA POLITICA";"2";"NO LITERATURA";"2";"2018-08-25 13:30:08.93"
"PRACTICAS RELIGIOSAS";"RELIGION";"SOCIOLOGIA - ANTROPOLOGIA - ETNOLOGIA - EDUCACION";"3";"NO LITERATURA";"2";"2018-08-25 13:30:08.93"
"PROVINCIAS";"GEOGRAFIA E HISTORIA";"ECOLOGIA - MEDIO AMBIENTE - AGRICULTURA - AGROPECUARIA - RECURSOS NATURALES";"4";"NO LITERATURA";"2";"2018-08-25 13:30:08.93"
"PSICOLOGIA";"FILOSOFIA";"SOCIOLOGIA - ANTROPOLOGIA - ETNOLOGIA - EDUCACION";"3";"NO LITERATURA";"2";"2018-08-25 13:30:08.93"
"PUBLICACIONES OFICIALES";"PUBLICACIONES OFICIALES";"POLITICA - ECONOMIA - ECONOMIA POLITICA";"2";"NO LITERATURA";"2";"2018-08-25 13:30:08.93"
"PUBLICACIONES PERIODICAS";"PUBLICACIONES PERIODICAS";"PUBLICACIONES PERIODICAS";"6";"PUBLICACIONES PERIODICAS";"4";"2018-08-25 13:30:08.93"
"PUEBLOS";"GEOGRAFIA E HISTORIA";"ECOLOGIA - MEDIO AMBIENTE - AGRICULTURA - AGROPECUARIA - RECURSOS NATURALES";"4";"NO LITERATURA";"2";"2018-08-25 13:30:08.93"
"QUIMICA";"CIENCIAS PURAS";"SOCIOLOGIA - ANTROPOLOGIA - ETNOLOGIA - EDUCACION";"3";"NO LITERATURA";"2";"2018-08-25 13:30:08.93"
"RECREACION";"RECREACION";"SOCIOLOGIA - ANTROPOLOGIA - ETNOLOGIA - EDUCACION";"3";"NO LITERATURA";"2";"2018-08-25 13:30:08.93"
"RECURSOS NATURALES";"RECURSOS NATURALES";"ECOLOGIA - MEDIO AMBIENTE - AGRICULTURA - AGROPECUARIA - RECURSOS NATURALES";"4";"NO LITERATURA";"2";"2018-08-25 13:30:08.93"
"RECURSOS NATURALES - MEDIO AMBIENTE";"RECURSOS NATURALES";"ECOLOGIA - MEDIO AMBIENTE - AGRICULTURA - AGROPECUARIA - RECURSOS NATURALES";"4";"NO LITERATURA";"2";"2018-08-25 13:30:08.93"
"RELIGION";"RELIGION";"SOCIOLOGIA - ANTROPOLOGIA - ETNOLOGIA - EDUCACION";"3";"NO LITERATURA";"2";"2018-08-25 13:30:08.93"
"REVISTAS";"PUBLICACIONES PERIODICAS";"PUBLICACIONES PERIODICAS";"6";"PUBLICACIONES PERIODICAS";"4";"2018-08-25 13:30:08.93"
"SANTERIA";"RELIGION";"SOCIOLOGIA - ANTROPOLOGIA - ETNOLOGIA - EDUCACION";"3";"NO LITERATURA";"2";"2018-08-25 13:30:08.93"
"SEPARATAS";"PUBLICACIONES PERIODICAS";"PUBLICACIONES PERIODICAS";"6";"PUBLICACIONES PERIODICAS";"4";"2018-08-25 13:30:08.93"
"SERIES";"PUBLICACIONES PERIODICAS";"PUBLICACIONES PERIODICAS";"6";"PUBLICACIONES PERIODICAS";"4";"2018-08-25 13:30:08.93"
"SOCIOLOGIA";"CIENCIAS SOCIALES";"SOCIOLOGIA - ANTROPOLOGIA - ETNOLOGIA - EDUCACION";"3";"NO LITERATURA";"2";"2018-08-25 13:30:08.93"
"TEATRO";"LITERATURA";"ARTE - LITERATURA - BIBLIOGRAFIA - BIOGRAFIA - ENSAYO";"1";"LITERATURA";"1";"2018-08-25 13:30:08.93"
"TECNOLOGIA";"CIENCIAS APLICADAS";"SOCIOLOGIA - ANTROPOLOGIA - ETNOLOGIA - EDUCACION";"3";"NO LITERATURA";"2";"2018-08-25 13:30:08.93"
"TEOLOGIA CRISTIANA";"RELIGION";"SOCIOLOGIA - ANTROPOLOGIA - ETNOLOGIA - EDUCACION";"3";"NO LITERATURA";"2";"2018-08-25 13:30:08.93"
"TIERRA Y TERRITORIO";"RECURSOS NATURALES";"ECOLOGIA - MEDIO AMBIENTE - AGRICULTURA - AGROPECUARIA - RECURSOS NATURALES";"4";"NO LITERATURA";"2";"2018-08-25 13:30:08.93"
"TRANSPORTE";"CIENCIAS APLICADAS";"SOCIOLOGIA - ANTROPOLOGIA - ETNOLOGIA - EDUCACION";"3";"NO LITERATURA";"2";"2018-08-25 13:30:08.93"
"TURISMO";"GEOGRAFIA E HISTORIA";"ECOLOGIA - MEDIO AMBIENTE - AGRICULTURA - AGROPECUARIA - RECURSOS NATURALES";"4";"NO LITERATURA";"2";"2018-08-25 13:30:08.93"
"URBANISMO";"ARTES";"ARTE - LITERATURA - BIBLIOGRAFIA - BIOGRAFIA - ENSAYO";"1";"LITERATURA";"1";"2018-08-25 13:30:08.93"
"VETERINARIA";"RECURSOS NATURALES";"ECOLOGIA - MEDIO AMBIENTE - AGRICULTURA - AGROPECUARIA - RECURSOS NATURALES";"4";"NO LITERATURA";"2";"2018-08-25 13:30:08.93"
"VIAJES Y DESCRIPCIONES";"GEOGRAFIA E HISTORIA";"ECOLOGIA - MEDIO AMBIENTE - AGRICULTURA - AGROPECUARIA - RECURSOS NATURALES";"4";"NO LITERATURA";"2";"2018-08-25 13:30:08.93"
"ZOOLOGIA";"CIENCIAS PURAS";"ECOLOGIA - MEDIO AMBIENTE - AGRICULTURA - AGROPECUARIA - RECURSOS NATURALES";"4";"NO LITERATURA";"2";"2018-08-25 13:30:08.93"
"ZOOTECNIA";"RECURSOS NATURALES";"ECOLOGIA - MEDIO AMBIENTE - AGRICULTURA - AGROPECUARIA - RECURSOS NATURALES";"4";"NO LITERATURA";"2";"2018-08-25 13:30:08.93"
